Component,Description,Part,References,Value,Footprint,Quantity Per PCB,MPN,Remarks,Placement,manf
1,Unpolarized capacitor,C_Small,C207 C210,0.47u,0603_CAP,2,06033C474KAT2A,25V,,
2,Unpolarized capacitor,C_Small,C101 C104 C106 C201 C213 C215 C217 C218,100n,0603_CAP,8,06033D104KAT2A,25V 16V,,
3,Unpolarized capacitor,C_Small,C107,100p,0603_CAP,1,,,DNP,
4,Polarised capacitor,CP_Small,C103,100u,TantalC_SizeB_EIA-3528_Reflow,1,GRM31CR60J107ME39L,,,
5,Unpolarized capacitor,C_Small,C208 C209,10n,0603_CAP,2,06031C103K4Z2A,25V,,
6,Unpolarized capacitor,C_Small,C212 C214,10u,0603_CAP,2,ZRB18AR61E106ME01L,16V,,MURATA
7,Unpolarized capacitor,C_Small,C219,10u,0603_CAP,1,,16V,DNP,
8,Unpolarized capacitor,C_Small,C202 C203,220n,0603_CAP,2,06033D224KAT2A,25V,,
9,Unpolarized capacitor,C_Small,C206 C211,22n,0603_CAP,2,06033C223KAT2A,25V,,
10,Unpolarized capacitor,C_Small,C105 C108 C109 C110 C111,33p,0603_CAP,5,MC0603N330J250CT,,,AVX
11,Unpolarized capacitor,C_Small,C102 C112 C216,4.7u,0603_CAP,3,GRM188R61A475ME15D,,,
12,Unpolarized capacitor,C_Small,C204,5.6n,0603_CAP,1,CC0603KRX7R9BB562,25V,,
13,Unpolarized capacitor,C_Small,C113 C114,C,0402_CAP,2,,,DNP,
14,Unpolarized capacitor,C_Small,C205,C,0603_CAP,1,,25V,DNP,
15,Diode,D,D201,D,SOD-123_custom,1,MBR0520LT1G,DNP,,
16,,ZENERsmall,D202,D,SOD-123_custom,1,,,DNP,
17,Diode,D,D203,D,SOD-123_custom,1,MBR0520LT1G,MBR0520LT1G diode can be placed for li-ion (max 4.2V charge voltage),DNP,
18,Fuse,F_Small,F201,500mA,0603_GENERAL,1,SF-0603S050,I^2s > 0.006 A^2s @ 200mohm fuse ESR,,Bourns
19,,MFF2_SIM,J102,MFF2_SIM,DFN-S-8-1EP_6x5mm_Pitch1.27mm,1,,,DNP,
20,,SIM8051-6-0-14-01-X-REVD,J101,SIM8051-6-0-14-01-X-REVD,GCT_SIM8051-6-0-14-01-X-REVD,1,SIM8051-6-0-14-01-A,"SIM Nano Push Pull, 6P, 1.35mmH, with logo, 3  gold, with peg, T&R",,Global Connector Technology
21,"Connector, single row, 01x03",CONN_01X03,P201,B3B-XH-A (LF)(SN),JST_XH_B03B-XH-A_03x2.50mm_Straight,1,B3B-XH-A (LF)(SN),,,
22,"Connector, single row, 01x01",CONN_01X01,P113,GND,testpin_TH,1,,,DNP,
23,"Connector, single row, 01x06",CONN_01X06,P102,PROG,Pin_Header_Straight_1x06,1,,,DNP,
24,"Connector, single row, 01x05",CONN_01X05,P112,SPI,JST_GH_SM05B-GHS-TB_05x1.25mm_Angled,1,SM05B-GHS-TB (LF)(SN),,DNP,
25,"Connector, double row, 02x15",Tracker-base,P103,Tracker Base Connector,tracker,1,555600307,30 pin connector (excludes power connector),,MOLEX
26,,BNC,P111,U.Fl,UFL_SMT,1,U.FL-R-SMT(01),,,Hirose
27,"Connector, single row, 01x01",CONN_01X01,P119,VBAT,testpin_TH,1,,,DNP,
28,"Digital Transistor, 4.7k/47k",MUN5233,Q101 Q102 Q103,MUN5233,SOT-323,3,MUN5233T1G,,,
29,Resistor,R_Small,R109,0,0402_RES,1,,,,
30,Resistor,R_Small,R110,0,0402_RES,1,,,DNP,
31,Resistor,R_Small,R208,0,0603_RES,1,ERJ-3GEY0R00V,,,
32,Resistor,R_Small,R213,0,0603_RES,1,,,DNP,
33,Resistor,R_Small,R209,100k,0603_RES,1,CRGH0603J100K,,,
34,Resistor,R_Small,R101,10k,0603_RES,1,,,DNP,
35,Resistor,R_Small,R108 R202 R207 R211,10k,0603_RES,4,RC0603JR-0710KL,,,
36,Resistor,R_Small,R204,196,0603_RES,1,ERJ3EKF1960V,,,
37,Resistor,R_Small,R210 R212,20k,0603_RES,2,MCMR06X2002FTL,,,
38,Resistor,R_Small,R105 R106 R107,22,0603_RES,3,ERJ3EKF22R0V,,,
39,Resistor,R_Small,R206,2k4,0603_RES,1,MCWR06X2401FTL,,,
40,Resistor,R_Small,R102,610,0603_RES,1,ERJ-3EKF2610V,Hardware ID resistor,,
41,Resistor,R_Small,R205,820,0603_RES,1,MCWR06X8200FTL,,,
42,Resistor,R_Small,R201 R203,DNP,0603_RES,2,,,DNP,
43,Resistor,R_Small,R214,R,0603_RES,1,,,DNP,
44,Resistance,NTC,TH201,NTC,0603_RES,1,,,DNP,
45,,BC66,U103,BC66,BC66,1,BC66NB-04-STD,,,Quectel
46,,BQ51013BRHLR,U201,BQ51013BRHLR,QFN-20(VQFN-20),1,BQ51013BRHL,,,
47,,PESDxVxL5Ux,U102,PESD3V3L5UF,XSON-6,1,PESD3V3L5UF,,,
48,,VL53L0X,U101,VL53L1X,VL53L0X,1,VL53L1CXV0FY/1,,,
49,,bq25071,U202,bq25071,DFN-10-1EP_2x3mm_Pitch0.5mm,1,BQ25071DQCT,,,





Component Groups:,49
Component Count:,77
Fitted Components:,77
Number of PCBs:,1
Total components:,77
Schematic Version:,V0.2
Schematic Date:,2018-07-25
BoM Date:,wo 25 jul 2018 17:37:18 CEST
Schematic Source:,/home/dirkjan/workspace KiCad/Undagrid-vebego-addon/Undagrid-vebego-addon.sch
KiCad Version:,Eeschema 4.0.4-snap1-stable
