EESchema Schematic File Version 2
LIBS:Undagrid-vebego-addon-rescue
LIBS:power
LIBS:device
LIBS:transistors
LIBS:conn
LIBS:linear
LIBS:regul
LIBS:74xx
LIBS:cmos4000
LIBS:adc-dac
LIBS:memory
LIBS:xilinx
LIBS:microcontrollers
LIBS:dsp
LIBS:microchip
LIBS:analog_switches
LIBS:motorola
LIBS:texas
LIBS:intel
LIBS:audio
LIBS:interface
LIBS:digital-audio
LIBS:philips
LIBS:display
LIBS:cypress
LIBS:siliconi
LIBS:opto
LIBS:atmel
LIBS:contrib
LIBS:valves
LIBS:custom
LIBS:vl53l0x
LIBS:BQ51003YFPT
LIBS:dk_PMIC-Battery-Chargers
LIBS:Undagrid-vebego-addon-cache
EELAYER 25 0
EELAYER END
$Descr A4 11693 8268
encoding utf-8
Sheet 1 2
Title "Trash bin Addon board"
Date "2018-07-25"
Rev "V0.2"
Comp "Undagrid"
Comment1 ""
Comment2 ""
Comment3 ""
Comment4 ""
$EndDescr
$Comp
L Tracker-base P103
U 1 1 5AEC61A0
P 3875 2625
F 0 "P103" H 3875 3475 50  0000 C CNN
F 1 "Tracker Base Connector" H 3875 1375 50  0000 C CNN
F 2 "Custom:tracker" H 3625 1575 50  0001 C CNN
F 3 "" H 3625 1575 50  0000 C CNN
F 4 "MOLEX" H 3875 2625 60  0001 C CNN "manf"
F 5 "555600307" H 3875 2625 60  0001 C CNN "MPN"
F 6 "30 pin connector (excludes power connector)" H 3875 2625 60  0001 C CNN "Remarks"
	1    3875 2625
	1    0    0    -1  
$EndComp
$Comp
L GND #PWR01
U 1 1 5AEC62CF
P 4675 3575
F 0 "#PWR01" H 4675 3325 50  0001 C CNN
F 1 "GND" H 4675 3425 50  0000 C CNN
F 2 "" H 4675 3575 50  0000 C CNN
F 3 "" H 4675 3575 50  0000 C CNN
	1    4675 3575
	1    0    0    -1  
$EndComp
$Comp
L GND #PWR02
U 1 1 5AEC630D
P 3300 3025
F 0 "#PWR02" H 3300 2775 50  0001 C CNN
F 1 "GND" H 3300 2875 50  0000 C CNN
F 2 "" H 3300 3025 50  0000 C CNN
F 3 "" H 3300 3025 50  0000 C CNN
	1    3300 3025
	0    1    1    0   
$EndComp
$Comp
L GND #PWR03
U 1 1 5AEC6515
P 3325 3850
F 0 "#PWR03" H 3325 3600 50  0001 C CNN
F 1 "GND" H 3325 3700 50  0000 C CNN
F 2 "" H 3325 3850 50  0000 C CNN
F 3 "" H 3325 3850 50  0000 C CNN
	1    3325 3850
	1    0    0    -1  
$EndComp
$Comp
L +1V8 #PWR04
U 1 1 5AEC6539
P 2875 3125
F 0 "#PWR04" H 2875 2975 50  0001 C CNN
F 1 "+1V8" H 2875 3265 50  0000 C CNN
F 2 "" H 2875 3125 50  0000 C CNN
F 3 "" H 2875 3125 50  0000 C CNN
	1    2875 3125
	1    0    0    -1  
$EndComp
$Comp
L +1V8 #PWR05
U 1 1 5AEC654F
P 2825 3625
F 0 "#PWR05" H 2825 3475 50  0001 C CNN
F 1 "+1V8" H 2825 3765 50  0000 C CNN
F 2 "" H 2825 3625 50  0000 C CNN
F 3 "" H 2825 3625 50  0000 C CNN
	1    2825 3625
	1    0    0    -1  
$EndComp
$Comp
L +BATT #PWR06
U 1 1 5AEC6582
P 2625 3125
F 0 "#PWR06" H 2625 2975 50  0001 C CNN
F 1 "+BATT" H 2625 3265 50  0000 C CNN
F 2 "" H 2625 3125 50  0000 C CNN
F 3 "" H 2625 3125 50  0000 C CNN
	1    2625 3125
	1    0    0    -1  
$EndComp
Text Notes 2600 4200 0    60   ~ 0
The battery connector to the base node is optional
$Comp
L GND #PWR07
U 1 1 5AEC6636
P 3350 1925
F 0 "#PWR07" H 3350 1675 50  0001 C CNN
F 1 "GND" H 3350 1775 50  0000 C CNN
F 2 "" H 3350 1925 50  0000 C CNN
F 3 "" H 3350 1925 50  0000 C CNN
	1    3350 1925
	0    1    1    0   
$EndComp
$Comp
L +1V8 #PWR08
U 1 1 5AEC6650
P 4450 1850
F 0 "#PWR08" H 4450 1700 50  0001 C CNN
F 1 "+1V8" H 4450 1990 50  0000 C CNN
F 2 "" H 4450 1850 50  0000 C CNN
F 3 "" H 4450 1850 50  0000 C CNN
	1    4450 1850
	1    0    0    -1  
$EndComp
$Comp
L R_Small R110
U 1 1 5AEC74AD
P 10000 1825
F 0 "R110" H 10030 1845 50  0000 L CNN
F 1 "0" H 10030 1785 50  0000 L CNN
F 2 "RCL:0402_RES" H 10000 1825 50  0001 C CNN
F 3 "" H 10000 1825 50  0000 C CNN
F 4 "DNP" H 10000 1825 60  0001 C CNN "Placement"
	1    10000 1825
	0    1    1    0   
$EndComp
$Comp
L C_Small C113
U 1 1 5AEC751E
P 9750 2050
F 0 "C113" H 9760 2120 50  0000 L CNN
F 1 "C" H 9760 1970 50  0000 L CNN
F 2 "RCL:0402_CAP" H 9750 2050 50  0001 C CNN
F 3 "" H 9750 2050 50  0000 C CNN
F 4 "DNP" H 9750 2050 60  0001 C CNN "Placement"
	1    9750 2050
	-1   0    0    1   
$EndComp
$Comp
L GND #PWR09
U 1 1 5AEC76F3
P 10325 2225
F 0 "#PWR09" H 10325 1975 50  0001 C CNN
F 1 "GND" H 10325 2075 50  0000 C CNN
F 2 "" H 10325 2225 50  0000 C CNN
F 3 "" H 10325 2225 50  0000 C CNN
	1    10325 2225
	1    0    0    -1  
$EndComp
$Comp
L GND #PWR010
U 1 1 5AEC770D
P 9750 2200
F 0 "#PWR010" H 9750 1950 50  0001 C CNN
F 1 "GND" H 9750 2050 50  0000 C CNN
F 2 "" H 9750 2200 50  0000 C CNN
F 3 "" H 9750 2200 50  0000 C CNN
	1    9750 2200
	1    0    0    -1  
$EndComp
$Comp
L C_Small C112
U 1 1 5AEC7947
P 9075 3075
F 0 "C112" H 9085 3145 50  0000 L CNN
F 1 "4.7u" H 9085 2995 50  0000 L CNN
F 2 "RCL:0603_CAP" H 9075 3075 50  0001 C CNN
F 3 "" H 9075 3075 50  0000 C CNN
	1    9075 3075
	1    0    0    1   
$EndComp
$Comp
L GND #PWR011
U 1 1 5AEC794D
P 9075 3225
F 0 "#PWR011" H 9075 2975 50  0001 C CNN
F 1 "GND" H 9075 3075 50  0000 C CNN
F 2 "" H 9075 3225 50  0000 C CNN
F 3 "" H 9075 3225 50  0000 C CNN
	1    9075 3225
	1    0    0    -1  
$EndComp
$Comp
L GND #PWR012
U 1 1 5AEC799D
P 9025 2625
F 0 "#PWR012" H 9025 2375 50  0001 C CNN
F 1 "GND" H 9025 2475 50  0000 C CNN
F 2 "" H 9025 2625 50  0000 C CNN
F 3 "" H 9025 2625 50  0000 C CNN
	1    9025 2625
	0    -1   -1   0   
$EndComp
$Comp
L GND #PWR013
U 1 1 5AEC7AB2
P 6400 1825
F 0 "#PWR013" H 6400 1575 50  0001 C CNN
F 1 "GND" H 6400 1675 50  0000 C CNN
F 2 "" H 6400 1825 50  0000 C CNN
F 3 "" H 6400 1825 50  0000 C CNN
	1    6400 1825
	0    1    1    0   
$EndComp
$Comp
L GND #PWR014
U 1 1 5AEC7AFE
P 8350 1225
F 0 "#PWR014" H 8350 975 50  0001 C CNN
F 1 "GND" H 8350 1075 50  0000 C CNN
F 2 "" H 8350 1225 50  0000 C CNN
F 3 "" H 8350 1225 50  0000 C CNN
	1    8350 1225
	1    0    0    -1  
$EndComp
NoConn ~ 7275 1225
$Comp
L BC66 U103
U 1 1 5AEC73EC
P 7675 2325
F 0 "U103" H 7675 2225 50  0000 C CNN
F 1 "BC66" H 7675 2425 50  0000 C CNN
F 2 "Custom:BC66" H 7675 2325 50  0001 C CNN
F 3 "DOCUMENTATION" H 7675 2325 50  0001 C CNN
F 4 "Quectel" H 7675 2325 60  0001 C CNN "manf"
F 5 "BC66NB-04-STD" H 7675 2325 60  0001 C CNN "MPN"
	1    7675 2325
	1    0    0    -1  
$EndComp
$Comp
L CONN_01X01 P107
U 1 1 5AEFEF64
P 7775 825
F 0 "P107" H 7775 925 50  0000 C CNN
F 1 "DBG_TX" H 7950 825 40  0000 C CNN
F 2 "Custom:testpin_1X01" H 7775 825 50  0001 C CNN
F 3 "" H 7775 825 50  0000 C CNN
F 4 "DNP" H 7775 825 60  0001 C CNN "Placement"
	1    7775 825 
	0    -1   -1   0   
$EndComp
$Comp
L CONN_01X01 P108
U 1 1 5AEFF246
P 7875 825
F 0 "P108" H 7875 725 50  0000 C CNN
F 1 "DBG_RX" H 8050 825 40  0000 C CNN
F 2 "Custom:testpin_1X01" H 7875 825 50  0001 C CNN
F 3 "" H 7875 825 50  0000 C CNN
F 4 "DNP" H 7875 825 60  0001 C CNN "Placement"
	1    7875 825 
	0    -1   -1   0   
$EndComp
NoConn ~ 8875 2025
NoConn ~ 8875 2125
NoConn ~ 8875 2225
NoConn ~ 8875 2325
NoConn ~ 8875 2725
NoConn ~ 8875 2825
NoConn ~ 8075 3425
NoConn ~ 7975 3425
NoConn ~ 6475 1925
NoConn ~ 6475 2525
$Comp
L CONN_01X01 P109
U 1 1 5AF062D7
P 9300 2425
F 0 "P109" H 9300 2325 50  0000 C CNN
F 1 "TX_AUX" H 9475 2425 40  0000 C CNN
F 2 "Custom:testpin_1X01" H 9300 2425 50  0001 C CNN
F 3 "" H 9300 2425 50  0000 C CNN
F 4 "DNP" H 9300 2425 60  0001 C CNN "Placement"
	1    9300 2425
	1    0    0    1   
$EndComp
$Comp
L CONN_01X01 P110
U 1 1 5AF0636B
P 9300 2525
F 0 "P110" H 9300 2625 50  0000 C CNN
F 1 "RX_AUX" H 9475 2525 40  0000 C CNN
F 2 "Custom:testpin_1X01" H 9300 2525 50  0001 C CNN
F 3 "" H 9300 2525 50  0000 C CNN
F 4 "DNP" H 9300 2525 60  0001 C CNN "Placement"
	1    9300 2525
	1    0    0    1   
$EndComp
NoConn ~ 8875 3025
$Comp
L R_Small R102
U 1 1 5AF06C13
P 4675 3175
F 0 "R102" H 4705 3195 50  0000 L CNN
F 1 "610" H 4705 3135 50  0000 L CNN
F 2 "RCL:0603_RES" H 4675 3175 50  0001 C CNN
F 3 "" H 4675 3175 50  0000 C CNN
F 4 "ERJ-3EKF2610V" H 4675 3175 60  0001 C CNN "MPN"
F 5 "Hardware ID resistor" H 4675 3175 60  0001 C CNN "Remarks"
	1    4675 3175
	-1   0    0    1   
$EndComp
Text Label 3075 2225 2    60   ~ 0
TRACKER_TXD
Text Label 3075 2325 2    60   ~ 0
TRACKER_RXD
Text Label 7675 3950 3    40   ~ 0
TRACKER_TXD
Text Label 7575 3950 3    40   ~ 0
TRACKER_RXD
$Comp
L SIM8051-6-0-14-01-X-REVD J101
U 1 1 5AF13CA7
P 7025 4975
F 0 "J101" H 6850 4700 50  0000 L BNN
F 1 "SIM8051-6-0-14-01-X-REVD" H 6800 5200 40  0000 L BNN
F 2 "Custom:GCT_SIM8051-6-0-14-01-X-REVD" H 7025 4975 50  0001 L BNN
F 3 "" H 7025 4975 50  0001 L BNN
F 4 "Global Connector Technology" H 7025 4975 60  0001 C CNN "manf"
F 5 "SIM8051-6-0-14-01-A" H 7025 4975 60  0001 C CNN "MPN"
F 6 "SIM Nano Push Pull, 6P, 1.35mmH, with logo, 3  gold, with peg, T&R" H 7025 4975 60  0001 C CNN "Remarks"
	1    7025 4975
	-1   0    0    -1  
$EndComp
$Comp
L R_Small R105
U 1 1 5AF142FC
P 8400 4875
F 0 "R105" V 8425 4950 40  0000 L CNN
F 1 "22" V 8400 4875 30  0000 C CNN
F 2 "RCL:0603_RES" H 8400 4875 50  0001 C CNN
F 3 "" H 8400 4875 50  0000 C CNN
F 4 "ERJ3EKF22R0V" H 8400 4875 60  0001 C CNN "MPN"
	1    8400 4875
	0    1    -1   0   
$EndComp
$Comp
L R_Small R106
U 1 1 5AF14651
P 8400 4975
F 0 "R106" V 8425 5050 40  0000 L CNN
F 1 "22" V 8400 4975 30  0000 C CNN
F 2 "RCL:0603_RES" H 8400 4975 50  0001 C CNN
F 3 "" H 8400 4975 50  0000 C CNN
	1    8400 4975
	0    1    -1   0   
$EndComp
$Comp
L R_Small R107
U 1 1 5AF1469C
P 8400 5075
F 0 "R107" V 8425 5150 40  0000 L CNN
F 1 "22" V 8400 5075 30  0000 C CNN
F 2 "RCL:0603_RES" H 8400 5075 50  0001 C CNN
F 3 "" H 8400 5075 50  0000 C CNN
	1    8400 5075
	0    1    -1   0   
$EndComp
$Comp
L R_Small R108
U 1 1 5AF14CB4
P 8675 4750
F 0 "R108" H 8475 4800 40  0000 L CNN
F 1 "10k" V 8675 4750 30  0000 C CNN
F 2 "RCL:0603_RES" H 8675 4750 50  0001 C CNN
F 3 "" H 8675 4750 50  0000 C CNN
F 4 "RC0603JR-0710KL" H 8675 4750 60  0001 C CNN "MPN"
	1    8675 4750
	-1   0    0    -1  
$EndComp
$Comp
L C_Small C104
U 1 1 5AF156C9
P 6250 4975
F 0 "C104" H 6260 5045 50  0000 L CNN
F 1 "100n" H 6260 4895 50  0000 L CNN
F 2 "RCL:0603_CAP" H 6250 4975 50  0001 C CNN
F 3 "" H 6250 4975 50  0000 C CNN
	1    6250 4975
	-1   0    0    1   
$EndComp
$Comp
L GND #PWR015
U 1 1 5AF15AC4
P 9025 1925
F 0 "#PWR015" H 9025 1675 50  0001 C CNN
F 1 "GND" H 9025 1775 50  0000 C CNN
F 2 "" H 9025 1925 50  0000 C CNN
F 3 "" H 9025 1925 50  0000 C CNN
	1    9025 1925
	0    -1   -1   0   
$EndComp
$Comp
L C_Small C109
U 1 1 5AF160CB
P 7925 5375
F 0 "C109" V 7975 5400 50  0000 L CNN
F 1 "33p" H 7935 5295 50  0000 L CNN
F 2 "RCL:0603_CAP" H 7925 5375 50  0001 C CNN
F 3 "" H 7925 5375 50  0000 C CNN
	1    7925 5375
	-1   0    0    1   
$EndComp
$Comp
L C_Small C110
U 1 1 5AF1618F
P 8075 5375
F 0 "C110" V 8125 5400 50  0000 L CNN
F 1 "33p" H 8085 5295 50  0000 L CNN
F 2 "RCL:0603_CAP" H 8075 5375 50  0001 C CNN
F 3 "" H 8075 5375 50  0000 C CNN
	1    8075 5375
	-1   0    0    1   
$EndComp
$Comp
L C_Small C111
U 1 1 5AF161E7
P 8225 5375
F 0 "C111" V 8275 5400 50  0000 L CNN
F 1 "33p" H 8235 5295 50  0000 L CNN
F 2 "RCL:0603_CAP" H 8225 5375 50  0001 C CNN
F 3 "" H 8225 5375 50  0000 C CNN
	1    8225 5375
	-1   0    0    1   
$EndComp
$Comp
L GND #PWR016
U 1 1 5AF16C44
P 8225 5550
F 0 "#PWR016" H 8225 5300 50  0001 C CNN
F 1 "GND" H 8225 5400 50  0000 C CNN
F 2 "" H 8225 5550 50  0000 C CNN
F 3 "" H 8225 5550 50  0000 C CNN
	1    8225 5550
	-1   0    0    -1  
$EndComp
$Comp
L GND #PWR017
U 1 1 5AF16D07
P 8075 5550
F 0 "#PWR017" H 8075 5300 50  0001 C CNN
F 1 "GND" H 8075 5400 50  0000 C CNN
F 2 "" H 8075 5550 50  0000 C CNN
F 3 "" H 8075 5550 50  0000 C CNN
	1    8075 5550
	-1   0    0    -1  
$EndComp
$Comp
L GND #PWR018
U 1 1 5AF16D57
P 7925 5550
F 0 "#PWR018" H 7925 5300 50  0001 C CNN
F 1 "GND" H 7925 5400 50  0000 C CNN
F 2 "" H 7925 5550 50  0000 C CNN
F 3 "" H 7925 5550 50  0000 C CNN
	1    7925 5550
	-1   0    0    -1  
$EndComp
$Comp
L C_Small C105
U 1 1 5AF18CE8
P 6400 5375
F 0 "C105" H 6410 5445 50  0000 L CNN
F 1 "33p" H 6410 5295 50  0000 L CNN
F 2 "RCL:0603_CAP" H 6400 5375 50  0001 C CNN
F 3 "" H 6400 5375 50  0000 C CNN
F 4 "AVX" H 6400 5375 60  0001 C CNN "manf"
F 5 "MC0603N330J250CT" H 6400 5375 60  0001 C CNN "MPN"
	1    6400 5375
	-1   0    0    1   
$EndComp
$Comp
L CONN_01X01 P106
U 1 1 5AF19AF1
P 7475 3900
F 0 "P106" H 7375 3950 50  0000 C CNN
F 1 "NETLIGHT" H 7675 3900 40  0000 C CNN
F 2 "Custom:testpin_1X01" H 7475 3900 50  0001 C CNN
F 3 "" H 7475 3900 50  0000 C CNN
F 4 "DNP" H 7475 3900 60  0001 C CNN "Placement"
	1    7475 3900
	0    1    1    0   
$EndComp
$Comp
L CONN_01X01 P105
U 1 1 5AF19E34
P 7375 3900
F 0 "P105" H 7375 3800 50  0000 C CNN
F 1 "RESET" H 7550 3900 40  0000 C CNN
F 2 "Custom:testpin_1X01" H 7375 3900 50  0001 C CNN
F 3 "" H 7375 3900 50  0000 C CNN
F 4 "DNP" H 7375 3900 60  0001 C CNN "Placement"
	1    7375 3900
	0    1    1    0   
$EndComp
$Comp
L C_Small C108
U 1 1 5AF1AD9E
P 6900 1000
F 0 "C108" H 6910 1070 50  0000 L CNN
F 1 "33p" H 6910 920 50  0000 L CNN
F 2 "RCL:0603_CAP" H 6900 1000 50  0001 C CNN
F 3 "" H 6900 1000 50  0000 C CNN
	1    6900 1000
	1    0    0    1   
$EndComp
$Comp
L C_Small C107
U 1 1 5AF1B147
P 6675 1000
F 0 "C107" H 6685 1070 50  0000 L CNN
F 1 "100p" H 6685 920 50  0000 L CNN
F 2 "RCL:0603_CAP" H 6675 1000 50  0001 C CNN
F 3 "" H 6675 1000 50  0000 C CNN
F 4 "DNP" H 6675 1000 60  0001 C CNN "Placement"
	1    6675 1000
	1    0    0    1   
$EndComp
$Comp
L C_Small C106
U 1 1 5AF1B337
P 6450 1000
F 0 "C106" H 6460 1070 50  0000 L CNN
F 1 "100n" H 6460 920 50  0000 L CNN
F 2 "RCL:0603_CAP" H 6450 1000 50  0001 C CNN
F 3 "" H 6450 1000 50  0000 C CNN
	1    6450 1000
	1    0    0    1   
$EndComp
$Comp
L CP_Small C103
U 1 1 5AF1B3F3
P 6250 1000
F 0 "C103" H 6260 1070 50  0000 L CNN
F 1 "100u" H 6260 920 50  0000 L CNN
F 2 "Capacitors_Tantalum_SMD:TantalC_SizeB_EIA-3528_Reflow" H 6250 1000 50  0001 C CNN
F 3 "" H 6250 1000 50  0000 C CNN
F 4 "GRM31CR60J107ME39L" H 6250 1000 60  0001 C CNN "MPN"
	1    6250 1000
	1    0    0    -1  
$EndComp
$Comp
L GND #PWR019
U 1 1 5AF1B8F7
P 6900 1100
F 0 "#PWR019" H 6900 850 50  0001 C CNN
F 1 "GND" H 6900 950 50  0000 C CNN
F 2 "" H 6900 1100 50  0000 C CNN
F 3 "" H 6900 1100 50  0000 C CNN
	1    6900 1100
	1    0    0    -1  
$EndComp
$Comp
L GND #PWR020
U 1 1 5AF1B962
P 6675 1100
F 0 "#PWR020" H 6675 850 50  0001 C CNN
F 1 "GND" H 6675 950 50  0000 C CNN
F 2 "" H 6675 1100 50  0000 C CNN
F 3 "" H 6675 1100 50  0000 C CNN
	1    6675 1100
	1    0    0    -1  
$EndComp
$Comp
L GND #PWR021
U 1 1 5AF1B9CD
P 6450 1100
F 0 "#PWR021" H 6450 850 50  0001 C CNN
F 1 "GND" H 6450 950 50  0000 C CNN
F 2 "" H 6450 1100 50  0000 C CNN
F 3 "" H 6450 1100 50  0000 C CNN
	1    6450 1100
	1    0    0    -1  
$EndComp
$Comp
L GND #PWR022
U 1 1 5AF1BA38
P 6250 1100
F 0 "#PWR022" H 6250 850 50  0001 C CNN
F 1 "GND" H 6250 950 50  0000 C CNN
F 2 "" H 6250 1100 50  0000 C CNN
F 3 "" H 6250 1100 50  0000 C CNN
	1    6250 1100
	1    0    0    -1  
$EndComp
$Comp
L +BATT #PWR023
U 1 1 5AF1C3F3
P 5600 750
F 0 "#PWR023" H 5600 600 50  0001 C CNN
F 1 "+BATT" H 5600 890 50  0000 C CNN
F 2 "" H 5600 750 50  0000 C CNN
F 3 "" H 5600 750 50  0000 C CNN
	1    5600 750 
	1    0    0    -1  
$EndComp
$Comp
L PESDxVxL5Ux U102
U 1 1 5AF1D371
P 7450 6100
F 0 "U102" H 7750 6300 40  0000 C CNN
F 1 "PESD3V3L5UF" H 7700 5950 40  0000 C CNN
F 2 "Custom:XSON-6" H 7450 6100 40  0001 C CNN
F 3 "" H 7450 6100 40  0001 C CNN
F 4 "PESD3V3L5UF" H 7450 6100 60  0001 C CNN "MPN"
	1    7450 6100
	1    0    0    -1  
$EndComp
$Comp
L GND #PWR024
U 1 1 5AF1D452
P 7450 6300
F 0 "#PWR024" H 7450 6050 50  0001 C CNN
F 1 "GND" H 7450 6150 50  0000 C CNN
F 2 "" H 7450 6300 50  0000 C CNN
F 3 "" H 7450 6300 50  0000 C CNN
	1    7450 6300
	-1   0    0    -1  
$EndComp
NoConn ~ 7250 5850
Text Label 6375 2825 2    60   ~ 0
SIM_DATA
Text Label 6375 2925 2    60   ~ 0
SIM_RST
Text Label 6375 3025 2    60   ~ 0
SIM_CLK
Text Label 8850 5075 0    60   ~ 0
SIM_DATA
Text Label 8850 4875 0    60   ~ 0
SIM_RST
Text Label 8850 4975 0    60   ~ 0
SIM_CLK
$Comp
L VL53L0X U101
U 1 1 5AF22E90
P 2225 6875
F 0 "U101" H 2975 8125 60  0000 C CNN
F 1 "VL53L1X" H 2975 8025 60  0000 C CNN
F 2 "Custom:VL53L0X" H 1075 7625 60  0001 C CNN
F 3 "" H 1075 7625 60  0001 C CNN
F 4 "VL53L1CXV0FY/1" H 2225 6875 60  0001 C CNN "MPN"
	1    2225 6875
	1    0    0    -1  
$EndComp
NoConn ~ 2025 6225
$Comp
L GND #PWR025
U 1 1 5AF24497
P 2475 7325
F 0 "#PWR025" H 2475 7075 50  0001 C CNN
F 1 "GND" H 2475 7175 50  0000 C CNN
F 2 "" H 2475 7325 50  0000 C CNN
F 3 "" H 2475 7325 50  0000 C CNN
	1    2475 7325
	-1   0    0    -1  
$EndComp
$Comp
L C_Small C102
U 1 1 5AF247FC
P 2325 5350
F 0 "C102" H 2335 5420 50  0000 L CNN
F 1 "4.7u" H 2335 5270 50  0000 L CNN
F 2 "RCL:0603_CAP" H 2325 5350 50  0001 C CNN
F 3 "" H 2325 5350 50  0000 C CNN
F 4 "GRM188R61A475ME15D" H 2325 5350 60  0001 C CNN "MPN"
	1    2325 5350
	1    0    0    1   
$EndComp
$Comp
L C_Small C101
U 1 1 5AF249FC
P 2100 5350
F 0 "C101" H 2110 5420 50  0000 L CNN
F 1 "100n" H 2110 5270 50  0000 L CNN
F 2 "RCL:0603_CAP" H 2100 5350 50  0001 C CNN
F 3 "" H 2100 5350 50  0000 C CNN
	1    2100 5350
	1    0    0    1   
$EndComp
$Comp
L GND #PWR026
U 1 1 5AF24EBB
P 2100 5550
F 0 "#PWR026" H 2100 5300 50  0001 C CNN
F 1 "GND" H 2100 5400 50  0000 C CNN
F 2 "" H 2100 5550 50  0000 C CNN
F 3 "" H 2100 5550 50  0000 C CNN
	1    2100 5550
	-1   0    0    -1  
$EndComp
$Comp
L +BATT #PWR027
U 1 1 5AF259B9
P 2100 4900
F 0 "#PWR027" H 2100 4750 50  0001 C CNN
F 1 "+BATT" H 2100 5040 50  0000 C CNN
F 2 "" H 2100 4900 50  0000 C CNN
F 3 "" H 2100 4900 50  0000 C CNN
	1    2100 4900
	1    0    0    -1  
$EndComp
$Comp
L R_Small R101
U 1 1 5AF2666D
P 1850 5925
F 0 "R101" V 1775 5850 40  0000 L CNN
F 1 "10k" V 1850 5925 30  0000 C CNN
F 2 "RCL:0603_RES" H 1850 5925 50  0001 C CNN
F 3 "" H 1850 5925 50  0000 C CNN
F 4 "DNP" H 1850 5925 60  0001 C CNN "Placement"
	1    1850 5925
	-1   0    0    -1  
$EndComp
$Comp
L +1V8 #PWR028
U 1 1 5AF26F74
P 1850 5700
F 0 "#PWR028" H 1850 5550 50  0001 C CNN
F 1 "+1V8" H 1850 5840 50  0000 C CNN
F 2 "" H 1850 5700 50  0000 C CNN
F 3 "" H 1850 5700 50  0000 C CNN
	1    1850 5700
	1    0    0    -1  
$EndComp
Text Label 4450 2025 0    60   ~ 0
I2C_SDA
Text Label 4450 2125 0    60   ~ 0
i2C_SCL
Text Label 1900 6425 2    60   ~ 0
I2C_SDA
Text Label 1900 6525 2    60   ~ 0
i2C_SCL
$Comp
L CONN_01X01 P101
U 1 1 5AF281B4
P 3450 6275
F 0 "P101" H 3450 6175 50  0000 C CNN
F 1 "PS_INT" H 3625 6275 40  0000 C CNN
F 2 "Custom:testpin_1X01" H 3450 6275 50  0001 C CNN
F 3 "" H 3450 6275 50  0000 C CNN
F 4 "DNP" H 3450 6275 60  0001 C CNN "Placement"
	1    3450 6275
	1    0    0    -1  
$EndComp
$Comp
L C_Small C114
U 1 1 5AF298FD
P 10325 2075
F 0 "C114" H 10335 2145 50  0000 L CNN
F 1 "C" H 10335 1995 50  0000 L CNN
F 2 "RCL:0402_CAP" H 10325 2075 50  0001 C CNN
F 3 "" H 10325 2075 50  0000 C CNN
F 4 "DNP" H 10325 2075 60  0001 C CNN "Placement"
	1    10325 2075
	-1   0    0    1   
$EndComp
$Comp
L GND #PWR029
U 1 1 5AF2A0DD
P 5675 3025
F 0 "#PWR029" H 5675 2775 50  0001 C CNN
F 1 "GND" H 5675 2875 50  0000 C CNN
F 2 "" H 5675 3025 50  0000 C CNN
F 3 "" H 5675 3025 50  0000 C CNN
	1    5675 3025
	1    0    0    -1  
$EndComp
Text Notes 5600 1100 0    60   ~ 0
ESR<0.7ohm
$Comp
L MUN5233 Q101
U 1 1 5AFAA459
P 5575 2800
F 0 "Q101" H 5775 2875 50  0000 L CNN
F 1 "MUN5233" H 5775 2800 50  0000 L CNN
F 2 "TO_SOT_Packages_SMD:SOT-323" H 5575 2800 50  0001 L CNN
F 3 "" H 5575 2800 50  0000 L CNN
F 4 "MUN5233T1G" H 5575 2800 60  0001 C CNN "MPN"
	1    5575 2800
	1    0    0    -1  
$EndComp
$Comp
L GND #PWR030
U 1 1 5AFAD8F3
P 7125 4225
F 0 "#PWR030" H 7125 3975 50  0001 C CNN
F 1 "GND" H 7125 4075 50  0000 C CNN
F 2 "" H 7125 4225 50  0000 C CNN
F 3 "" H 7125 4225 50  0000 C CNN
	1    7125 4225
	1    0    0    -1  
$EndComp
$Comp
L MUN5233 Q102
U 1 1 5AFAD8FC
P 7025 4000
F 0 "Q102" H 6750 4175 50  0000 L CNN
F 1 "MUN5233" H 6600 3825 50  0000 L CNN
F 2 "TO_SOT_Packages_SMD:SOT-323" H 7025 4000 50  0001 L CNN
F 3 "" H 7025 4000 50  0000 L CNN
F 4 "MUN5233T1G" H 7025 4000 60  0001 C CNN "MPN"
	1    7025 4000
	1    0    0    -1  
$EndComp
Text Label 6725 4000 2    60   ~ 0
RESET_NBIOT
Text Label 3075 2525 2    60   ~ 0
RESET_NBIOT
Text Label 8225 3925 0    60   ~ 0
PSM_EINT
Text Label 3075 2625 2    60   ~ 0
PSM_EINT
NoConn ~ 7875 3425
$Comp
L CONN_01X01 P104
U 1 1 5AFAFB26
P 6100 2625
F 0 "P104" H 6100 2525 50  0000 C CNN
F 1 "ADC" H 6275 2625 40  0000 C CNN
F 2 "Custom:testpin_1X01" H 6100 2625 50  0001 C CNN
F 3 "" H 6100 2625 50  0000 C CNN
F 4 "DNP" H 6100 2625 60  0001 C CNN "Placement"
	1    6100 2625
	-1   0    0    1   
$EndComp
$Comp
L R_Small R109
U 1 1 5B03EF85
P 10000 1275
F 0 "R109" H 10030 1295 50  0000 L CNN
F 1 "0" H 10030 1235 50  0000 L CNN
F 2 "RCL:0402_RES" H 10000 1275 50  0001 C CNN
F 3 "" H 10000 1275 50  0000 C CNN
	1    10000 1275
	0    1    1    0   
$EndComp
$Comp
L ANTENNA ANT101
U 1 1 5B03F7AD
P 10900 1175
F 0 "ANT101" H 10900 1425 60  0000 C CNN
F 1 "ANTENNA" H 10900 925 60  0001 C CNN
F 2 "Custom:nbIoT_antenna" H 10900 1175 60  0001 C CNN
F 3 "" H 10900 1175 60  0001 C CNN
F 4 "not a part" H 10900 1175 60  0001 C CNN "MPN"
F 5 "DNP" H 10900 1175 60  0001 C CNN "Placement"
	1    10900 1175
	1    0    0    -1  
$EndComp
$Comp
L GND #PWR031
U 1 1 5B03FC64
P 11000 1375
F 0 "#PWR031" H 11000 1125 50  0001 C CNN
F 1 "GND" H 11000 1225 50  0000 C CNN
F 2 "" H 11000 1375 50  0000 C CNN
F 3 "" H 11000 1375 50  0000 C CNN
	1    11000 1375
	1    0    0    -1  
$EndComp
$Comp
L BNC P111
U 1 1 5B04032D
P 10325 1275
F 0 "P111" H 10335 1395 50  0000 C CNN
F 1 "U.Fl" V 10435 1215 50  0000 C CNN
F 2 "Custom:UFL_SMT" H 10325 1275 50  0001 C CNN
F 3 "" H 10325 1275 50  0000 C CNN
F 4 "Hirose" H 10325 1275 60  0001 C CNN "manf"
F 5 "U.FL-R-SMT(01)" H 10325 1275 60  0001 C CNN "MPN"
	1    10325 1275
	1    0    0    -1  
$EndComp
$Comp
L GND #PWR032
U 1 1 5B04065B
P 10325 1525
F 0 "#PWR032" H 10325 1275 50  0001 C CNN
F 1 "GND" H 10325 1375 50  0000 C CNN
F 2 "" H 10325 1525 50  0000 C CNN
F 3 "" H 10325 1525 50  0000 C CNN
	1    10325 1525
	1    0    0    -1  
$EndComp
$Sheet
S 1125 850  1225 850 
U 5B041AA4
F0 "Qi Charger" 60
F1 "power.sch" 60
F2 "Qi_EN1" I L 1125 1225 50 
F3 "Qi_EN2" I L 1125 1325 50 
F4 "Qi_CHG" O R 2350 1225 50 
F5 "CHARGER_EN" I L 1125 1600 50 
F6 "CHARGER_CHG" O R 2350 1475 50 
F7 "VDD_PULL_UP" I L 1125 950 50 
F8 "VBAT_OUT" O R 2350 950 50 
$EndSheet
$Comp
L +BATT #PWR033
U 1 1 5B0FF0AF
P 2550 875
F 0 "#PWR033" H 2550 725 50  0001 C CNN
F 1 "+BATT" H 2550 1015 50  0000 C CNN
F 2 "" H 2550 875 50  0000 C CNN
F 3 "" H 2550 875 50  0000 C CNN
	1    2550 875 
	1    0    0    -1  
$EndComp
Text Label 4475 2525 0    50   ~ 0
QI_EN1
Text Label 4475 2625 0    50   ~ 0
QI_EN2
Text Label 850  1225 2    50   ~ 0
QI_EN1
Text Label 850  1325 2    50   ~ 0
QI_EN2
Text Label 975  950  2    50   ~ 0
VDD_PU
Text Label 3075 2725 2    50   ~ 0
VDD_PU
Text Label 2500 1475 0    50   ~ 0
CHARGER_CHG
$Comp
L Jumper_NC_Small JP101
U 1 1 5B10AF66
P 2100 5050
F 0 "JP101" H 2100 5130 50  0000 C CNN
F 1 "Jumper_NC_Small" H 2110 4990 50  0001 C CNN
F 2 "Custom:SOLDER-JUMPER_1-WAY-SHORT" H 2100 5050 50  0001 C CNN
F 3 "" H 2100 5050 50  0000 C CNN
F 4 "DNP" H 2100 5050 60  0001 C CNN "Placement"
F 5 "On board connector" H 2100 5050 60  0001 C CNN "Remarks"
	1    2100 5050
	0    1    1    0   
$EndComp
$Comp
L Jumper_NC_Small JP103
U 1 1 5B0D7E3F
P 5850 825
F 0 "JP103" H 5850 905 50  0000 C CNN
F 1 "Jumper_NC_Small" H 5860 765 50  0001 C CNN
F 2 "Custom:SOLDER-JUMPER_1-WAY-SHORT" H 5850 825 50  0001 C CNN
F 3 "" H 5850 825 50  0000 C CNN
F 4 "DNP" H 5850 825 60  0001 C CNN "Placement"
F 5 "On board connector" H 5850 825 60  0001 C CNN "Remarks"
	1    5850 825 
	-1   0    0    1   
$EndComp
$Comp
L PWR_FLAG #FLG034
U 1 1 5B1117B2
P 3100 3525
F 0 "#FLG034" H 3100 3620 50  0001 C CNN
F 1 "PWR_FLAG" H 3100 3705 50  0000 C CNN
F 2 "" H 3100 3525 50  0000 C CNN
F 3 "" H 3100 3525 50  0000 C CNN
	1    3100 3525
	1    0    0    -1  
$EndComp
$Comp
L PWR_FLAG #FLG035
U 1 1 5B111CA6
P 7375 750
F 0 "#FLG035" H 7375 845 50  0001 C CNN
F 1 "PWR_FLAG" H 7375 930 50  0000 C CNN
F 2 "" H 7375 750 50  0000 C CNN
F 3 "" H 7375 750 50  0000 C CNN
	1    7375 750 
	1    0    0    -1  
$EndComp
NoConn ~ 4325 2225
NoConn ~ 4325 2325
NoConn ~ 4325 2425
$Comp
L CONN_01X05 P112
U 1 1 5B125E5D
P 5725 2125
F 0 "P112" H 5725 2425 50  0000 C CNN
F 1 "SPI" V 5825 2125 50  0000 C CNN
F 2 "Connectors_JST:JST_GH_SM05B-GHS-TB_05x1.25mm_Angled" H 5725 2125 50  0001 C CNN
F 3 "" H 5725 2125 50  0000 C CNN
F 4 "SM05B-GHS-TB (LF)(SN)" H 5725 2125 60  0001 C CNN "MPN"
F 5 "DNP" H 5725 2125 60  0001 C CNN "Placement"
	1    5725 2125
	-1   0    0    -1  
$EndComp
$Comp
L GND #PWR036
U 1 1 5B126480
P 5925 1925
F 0 "#PWR036" H 5925 1675 50  0001 C CNN
F 1 "GND" H 5925 1775 50  0000 C CNN
F 2 "" H 5925 1925 50  0000 C CNN
F 3 "" H 5925 1925 50  0000 C CNN
	1    5925 1925
	0    -1   -1   0   
$EndComp
$Comp
L CONN_01X06 P102
U 1 1 5B127460
P 4375 6300
F 0 "P102" H 4375 6675 50  0000 C CNN
F 1 "PROG" V 4475 6300 50  0000 C CNN
F 2 "Pin_Headers:Pin_Header_Straight_1x06" H 4375 6300 50  0001 C CNN
F 3 "" H 4375 6300 50  0000 C CNN
F 4 "DNP" H 4375 6300 60  0001 C CNN "Placement"
	1    4375 6300
	-1   0    0    1   
$EndComp
Text Label 4525 3000 0    60   ~ 0
PRG_RESET
Text Label 4525 2925 0    60   ~ 0
SWO
Text Label 4525 2825 0    60   ~ 0
SWCLK
Text Label 4525 2725 0    60   ~ 0
SWDIO
Text Label 4775 6350 0    60   ~ 0
PRG_RESET
Text Label 4775 6250 0    60   ~ 0
SWO
Text Label 4775 6150 0    60   ~ 0
SWCLK
Text Label 4775 6050 0    60   ~ 0
SWDIO
$Comp
L GND #PWR037
U 1 1 5B128E85
P 4675 6450
F 0 "#PWR037" H 4675 6200 50  0001 C CNN
F 1 "GND" V 4675 6250 50  0000 C CNN
F 2 "" H 4675 6450 50  0000 C CNN
F 3 "" H 4675 6450 50  0000 C CNN
	1    4675 6450
	0    -1   1    0   
$EndComp
$Comp
L Jumper_NO_Small JP102
U 1 1 5B129DBF
P 5925 5225
F 0 "JP102" H 5925 5305 50  0000 C CNN
F 1 "Jumper_NO_Small" H 5935 5165 50  0001 C CNN
F 2 "Custom:SOLDER-JUMPER_1-WAY" H 5925 5225 50  0001 C CNN
F 3 "" H 5925 5225 50  0000 C CNN
F 4 "DNP" H 5925 5225 60  0001 C CNN "Placement"
	1    5925 5225
	0    1    1    0   
$EndComp
$Comp
L GND #PWR038
U 1 1 5B12A103
P 5925 5375
F 0 "#PWR038" H 5925 5125 50  0001 C CNN
F 1 "GND" H 5925 5225 50  0000 C CNN
F 2 "" H 5925 5375 50  0000 C CNN
F 3 "" H 5925 5375 50  0000 C CNN
	1    5925 5375
	-1   0    0    -1  
$EndComp
$Comp
L MFF2_SIM J102
U 1 1 5B12D92B
P 7025 5575
F 0 "J102" H 6825 5795 50  0000 L BNN
F 1 "MFF2_SIM" H 6824 5274 50  0000 L BNN
F 2 "Housings_DFN_QFN:DFN-S-8-1EP_6x5mm_Pitch1.27mm" H 6425 5975 50  0001 L BNN
F 3 "" H 7325 4825 50  0001 L BNN
F 4 "DNP" H 7025 5575 60  0001 C CNN "Placement"
	1    7025 5575
	-1   0    0    -1  
$EndComp
$Comp
L GND #PWR039
U 1 1 5AF18ECD
P 6400 5775
F 0 "#PWR039" H 6400 5525 50  0001 C CNN
F 1 "GND" H 6400 5625 50  0000 C CNN
F 2 "" H 6400 5775 50  0000 C CNN
F 3 "" H 6400 5775 50  0000 C CNN
	1    6400 5775
	-1   0    0    -1  
$EndComp
Wire Wire Line
	6400 5475 6400 5775
Connection ~ 7350 5275
Wire Wire Line
	6525 5275 7350 5275
Wire Wire Line
	6525 5475 6525 5275
Connection ~ 7650 5675
Wire Wire Line
	7325 5675 7650 5675
Connection ~ 7550 5575
Wire Wire Line
	7325 5575 7550 5575
Connection ~ 7450 5475
Wire Wire Line
	7325 5475 7450 5475
Connection ~ 7650 5075
Wire Wire Line
	7650 5075 7650 5850
Connection ~ 7550 4975
Wire Wire Line
	7550 4975 7550 5850
Connection ~ 7450 4875
Wire Wire Line
	7450 4875 7450 5850
Connection ~ 7350 4550
Wire Wire Line
	7350 4550 7350 5850
Wire Wire Line
	5925 5375 5925 5325
Connection ~ 5925 5075
Wire Wire Line
	4575 6450 4675 6450
Wire Wire Line
	4575 6350 4775 6350
Wire Wire Line
	4575 6250 4775 6250
Wire Wire Line
	4575 6150 4775 6150
Wire Wire Line
	4575 6050 4775 6050
Wire Wire Line
	4425 3000 4525 3000
Wire Wire Line
	4425 3125 4425 3000
Wire Wire Line
	4325 3125 4425 3125
Wire Wire Line
	4325 2925 4525 2925
Wire Wire Line
	4325 2825 4525 2825
Wire Wire Line
	4325 2725 4525 2725
Wire Wire Line
	6475 2025 5925 2025
Wire Wire Line
	5925 2125 6475 2125
Wire Wire Line
	6475 2225 5925 2225
Connection ~ 7375 825 
Connection ~ 3100 3625
Wire Wire Line
	3100 3525 3100 3625
Wire Wire Line
	5950 825  7375 825 
Wire Wire Line
	5600 825  5750 825 
Wire Wire Line
	2100 4950 2100 4900
Wire Wire Line
	3125 1225 3125 2425
Wire Wire Line
	2350 1225 3125 1225
Wire Wire Line
	3075 2725 3425 2725
Wire Wire Line
	4325 2625 4475 2625
Wire Wire Line
	4325 2525 4475 2525
Wire Wire Line
	2350 1475 2500 1475
Wire Wire Line
	1125 1325 850  1325
Wire Wire Line
	850  1225 1125 1225
Wire Wire Line
	1125 950  975  950 
Wire Wire Line
	2550 950  2350 950 
Wire Wire Line
	2550 875  2550 950 
Wire Wire Line
	10325 1525 10325 1475
Wire Wire Line
	10175 1275 10100 1275
Wire Wire Line
	9900 1275 9750 1275
Wire Wire Line
	11000 1375 11000 1325
Wire Wire Line
	6300 2625 6475 2625
Wire Wire Line
	3075 2625 3425 2625
Wire Wire Line
	7775 3425 7775 3725
Wire Wire Line
	3075 2525 3425 2525
Wire Wire Line
	6775 4000 6725 4000
Connection ~ 7375 3525
Wire Wire Line
	7125 3525 7375 3525
Wire Wire Line
	7125 4225 7125 4200
Wire Wire Line
	7125 3525 7125 3800
Wire Wire Line
	5175 1575 5175 2800
Wire Wire Line
	3375 1575 5175 1575
Wire Wire Line
	3375 2025 3375 1575
Wire Wire Line
	3375 2025 3425 2025
Wire Wire Line
	3425 2125 1625 2125
Wire Wire Line
	5175 2800 5325 2800
Wire Wire Line
	5675 3025 5675 3000
Wire Wire Line
	5675 2425 5675 2600
Wire Wire Line
	3250 6275 3175 6275
Wire Wire Line
	2025 6525 1900 6525
Wire Wire Line
	2025 6425 1900 6425
Wire Wire Line
	4325 2125 4450 2125
Wire Wire Line
	4325 2025 4450 2025
Connection ~ 1850 6125
Wire Wire Line
	1625 2125 1625 6125
Wire Wire Line
	1850 5825 1850 5700
Wire Wire Line
	1850 6125 1850 6025
Wire Wire Line
	1625 6125 2025 6125
Connection ~ 2100 5200
Wire Wire Line
	2325 5475 2325 5450
Connection ~ 2100 5475
Wire Wire Line
	2100 5450 2100 5550
Wire Wire Line
	2100 5475 2325 5475
Connection ~ 2325 5200
Wire Wire Line
	2325 5200 2325 5250
Wire Wire Line
	2100 5150 2100 5250
Connection ~ 2475 7175
Connection ~ 2575 7175
Wire Wire Line
	2575 7075 2575 7175
Connection ~ 2675 7175
Wire Wire Line
	2675 7175 2675 7075
Connection ~ 2775 7175
Wire Wire Line
	2775 7175 2775 7075
Wire Wire Line
	2875 7175 2875 7075
Wire Wire Line
	2475 7175 2875 7175
Wire Wire Line
	2475 7075 2475 7325
Connection ~ 2575 5200
Wire Wire Line
	2575 5200 2575 5575
Wire Wire Line
	2025 5200 2675 5200
Wire Wire Line
	2675 5200 2675 5575
Wire Wire Line
	4325 3325 4675 3325
Wire Wire Line
	4675 3275 4675 3575
Wire Wire Line
	4325 3225 4450 3225
Wire Wire Line
	4450 3225 4450 3325
Connection ~ 4450 3325
Wire Wire Line
	3425 3325 3350 3325
Wire Wire Line
	3350 3225 3350 3525
Wire Wire Line
	2625 3225 3425 3225
Wire Wire Line
	2625 3225 2625 3125
Connection ~ 3350 3225
Wire Wire Line
	2875 3125 3425 3125
Wire Wire Line
	3300 3025 3425 3025
Wire Wire Line
	3275 3725 3425 3725
Wire Wire Line
	3325 3725 3325 3850
Wire Wire Line
	2825 3625 3425 3625
Wire Wire Line
	3250 3525 3425 3525
Connection ~ 3350 3325
Wire Wire Line
	3350 1925 3425 1925
Wire Wire Line
	4450 1850 4450 1925
Wire Wire Line
	4450 1925 4325 1925
Wire Wire Line
	8875 1825 9900 1825
Wire Wire Line
	9750 1275 9750 1950
Connection ~ 9750 1825
Wire Wire Line
	10325 1825 10325 1975
Wire Wire Line
	10100 1825 10900 1825
Wire Wire Line
	9750 2150 9750 2200
Wire Wire Line
	10325 2175 10325 2225
Wire Wire Line
	10900 1825 10900 1325
Connection ~ 10325 1825
Wire Wire Line
	9075 3175 9075 3225
Wire Wire Line
	9075 2925 9075 2975
Wire Wire Line
	8875 2925 9175 2925
Wire Wire Line
	8875 2625 9025 2625
Wire Wire Line
	6400 1825 6475 1825
Wire Wire Line
	7575 1225 7575 1075
Wire Wire Line
	7575 1075 8350 1075
Wire Wire Line
	8350 1075 8350 1225
Wire Wire Line
	7675 1225 7675 1075
Connection ~ 7675 1075
Wire Wire Line
	7975 1075 7975 1225
Connection ~ 7975 1075
Wire Wire Line
	8075 1075 8075 1225
Connection ~ 8075 1075
Wire Wire Line
	7375 750  7375 1225
Wire Wire Line
	7375 1075 7475 1075
Wire Wire Line
	7475 1075 7475 1225
Connection ~ 7375 1075
Wire Wire Line
	7775 1225 7775 1025
Wire Wire Line
	7875 1025 7875 1225
Wire Wire Line
	8875 2525 9100 2525
Wire Wire Line
	8875 2425 9100 2425
Wire Wire Line
	7675 3425 7675 3950
Wire Wire Line
	7575 3425 7575 3950
Connection ~ 4675 3325
Wire Wire Line
	4675 3075 4675 3025
Wire Wire Line
	4675 3025 4325 3025
Wire Wire Line
	3425 2325 3075 2325
Wire Wire Line
	3075 2225 3425 2225
Wire Wire Line
	3125 2425 3425 2425
Wire Wire Line
	5925 2325 6475 2325
Wire Wire Line
	5925 2725 6475 2725
Wire Wire Line
	8875 1925 9025 1925
Wire Wire Line
	7925 5075 7925 5275
Wire Wire Line
	8075 4975 8075 5275
Wire Wire Line
	8225 4875 8225 5275
Wire Wire Line
	8225 5475 8225 5550
Wire Wire Line
	8075 5475 8075 5550
Wire Wire Line
	7925 5475 7925 5550
Wire Wire Line
	7325 5075 8300 5075
Connection ~ 7925 5075
Wire Wire Line
	8500 5075 8850 5075
Wire Wire Line
	8675 5075 8675 4850
Wire Wire Line
	8500 4875 8850 4875
Wire Wire Line
	8500 4975 8850 4975
Connection ~ 8675 5075
Wire Wire Line
	7325 4875 8300 4875
Wire Wire Line
	7325 4975 8300 4975
Connection ~ 8075 4975
Connection ~ 8225 4875
Wire Wire Line
	8675 4550 8675 4650
Wire Wire Line
	6250 4875 6525 4875
Wire Wire Line
	6250 3425 6250 4875
Wire Wire Line
	5875 5075 6525 5075
Connection ~ 6250 5075
Connection ~ 6250 4875
Wire Wire Line
	6400 5275 6400 4875
Connection ~ 6400 4875
Wire Wire Line
	6250 4550 8675 4550
Wire Wire Line
	5675 2425 6475 2425
Wire Wire Line
	7475 3700 7475 3425
Wire Wire Line
	7375 3425 7375 3700
Wire Wire Line
	6900 825  6900 900 
Wire Wire Line
	6675 825  6675 900 
Connection ~ 6900 825 
Wire Wire Line
	6450 825  6450 900 
Connection ~ 6675 825 
Wire Wire Line
	6250 825  6250 900 
Connection ~ 6450 825 
Connection ~ 6250 825 
Wire Wire Line
	5600 750  5600 825 
Wire Wire Line
	7450 6300 7450 6300
Wire Wire Line
	6475 2825 6375 2825
Wire Wire Line
	6375 2925 6475 2925
Wire Wire Line
	6475 3025 6375 3025
Wire Wire Line
	5925 2725 5925 5125
Wire Wire Line
	7275 3425 6250 3425
Connection ~ 6250 4550
Wire Wire Line
	6475 5675 6525 5675
Wire Wire Line
	6475 5075 6475 5675
Connection ~ 6475 5075
Wire Wire Line
	6525 5575 6475 5575
Connection ~ 6475 5575
Text Label 9450 1825 0    20   ~ 0
ant1
Text Label 10650 1825 0    20   ~ 0
ant2
Text Label 10150 1275 0    20   ~ 0
ant3
$Comp
L PWR_FLAG #FLG040
U 1 1 5B1625A4
P 3250 3525
F 0 "#FLG040" H 3250 3620 50  0001 C CNN
F 1 "PWR_FLAG" H 3250 3705 50  0000 C CNN
F 2 "" H 3250 3525 50  0000 C CNN
F 3 "" H 3250 3525 50  0000 C CNN
	1    3250 3525
	1    0    0    -1  
$EndComp
Connection ~ 3350 3525
$Comp
L PWR_FLAG #FLG041
U 1 1 5B162784
P 2025 5200
F 0 "#FLG041" H 2025 5295 50  0001 C CNN
F 1 "PWR_FLAG" H 2025 5380 50  0000 C CNN
F 2 "" H 2025 5200 50  0000 C CNN
F 3 "" H 2025 5200 50  0000 C CNN
	1    2025 5200
	0    -1   -1   0   
$EndComp
$Comp
L PWR_FLAG #FLG042
U 1 1 5B1630CA
P 3275 3725
F 0 "#FLG042" H 3275 3820 50  0001 C CNN
F 1 "PWR_FLAG" H 3275 3905 50  0000 C CNN
F 2 "" H 3275 3725 50  0000 C CNN
F 3 "" H 3275 3725 50  0000 C CNN
	1    3275 3725
	0    -1   -1   0   
$EndComp
Connection ~ 3325 3725
$Comp
L PWR_FLAG #FLG043
U 1 1 5B164EC2
P 9175 2925
F 0 "#FLG043" H 9175 3020 50  0001 C CNN
F 1 "PWR_FLAG" H 9175 3105 50  0000 C CNN
F 2 "" H 9175 2925 50  0000 C CNN
F 3 "" H 9175 2925 50  0000 C CNN
	1    9175 2925
	1    0    0    -1  
$EndComp
Connection ~ 9075 2925
NoConn ~ 6525 4975
$Comp
L PWR_FLAG #FLG044
U 1 1 5B165C42
P 5875 5075
F 0 "#FLG044" H 5875 5170 50  0001 C CNN
F 1 "PWR_FLAG" H 5875 5255 50  0000 C CNN
F 2 "" H 5875 5075 50  0000 C CNN
F 3 "" H 5875 5075 50  0000 C CNN
	1    5875 5075
	0    -1   -1   0   
$EndComp
$Comp
L GND #PWR045
U 1 1 5B170749
P 7775 4225
F 0 "#PWR045" H 7775 3975 50  0001 C CNN
F 1 "GND" H 7775 4075 50  0000 C CNN
F 2 "" H 7775 4225 50  0000 C CNN
F 3 "" H 7775 4225 50  0000 C CNN
	1    7775 4225
	-1   0    0    -1  
$EndComp
$Comp
L MUN5233 Q103
U 1 1 5B170750
P 7875 3925
F 0 "Q103" H 7625 4100 50  0000 L CNN
F 1 "MUN5233" H 7425 3775 50  0000 L CNN
F 2 "TO_SOT_Packages_SMD:SOT-323" H 7875 3925 50  0001 L CNN
F 3 "" H 7875 3925 50  0000 L CNN
F 4 "MUN5233T1G" H 7875 3925 60  0001 C CNN "MPN"
	1    7875 3925
	-1   0    0    -1  
$EndComp
Wire Wire Line
	7775 4225 7775 4125
Wire Wire Line
	8125 3925 8225 3925
Text Label 3075 2925 2    50   ~ 0
CHARGER_CHG
Wire Wire Line
	2525 2825 3425 2825
$Comp
L CONN_01X01 P114
U 1 1 5B1E1E05
P 2325 2825
F 0 "P114" H 2325 2725 50  0000 C CNN
F 1 "UART3_TX" H 2550 2825 40  0000 C CNN
F 2 "Custom:testpin_1X01" H 2325 2825 50  0001 C CNN
F 3 "" H 2325 2825 50  0000 C CNN
F 4 "DNP" H 2325 2825 60  0001 C CNN "Placement"
	1    2325 2825
	-1   0    0    1   
$EndComp
Connection ~ 950  1225
$Comp
L Jumper_NC_Small JP104
U 1 1 5B1E502A
P 950 1475
F 0 "JP104" H 950 1555 50  0000 C CNN
F 1 "Jumper_NC_Small" H 960 1415 50  0001 C CNN
F 2 "Custom:SOLDER-JUMPER_1-WAY-SHORT" H 950 1475 50  0001 C CNN
F 3 "" H 950 1475 50  0000 C CNN
F 4 "DNP" H 950 1475 60  0001 C CNN "Placement"
F 5 "On board connector" H 950 1475 60  0001 C CNN "Remarks"
	1    950  1475
	0    -1   -1   0   
$EndComp
Wire Wire Line
	950  1600 1125 1600
Wire Wire Line
	950  1225 950  1375
Wire Wire Line
	3075 2925 3425 2925
Wire Notes Line
	3775 7600 3775 4475
Wire Notes Line
	3775 4475 475  4475
Text Notes 2950 4600 0    60   ~ 0
Proximity Sensor
Wire Wire Line
	950  1575 950  1600
$Comp
L CONN_01X01 P113
U 1 1 5B1EC339
P 4350 7375
F 0 "P113" H 4350 7275 50  0000 C CNN
F 1 "GND" V 4450 7375 40  0000 C CNN
F 2 "Custom:testpin_TH" H 4350 7375 50  0001 C CNN
F 3 "" H 4350 7375 50  0000 C CNN
F 4 "DNP" H 4350 7375 60  0001 C CNN "Placement"
	1    4350 7375
	-1   0    0    1   
$EndComp
$Comp
L GND #PWR046
U 1 1 5B1EC9BA
P 4600 7375
F 0 "#PWR046" H 4600 7125 50  0001 C CNN
F 1 "GND" H 4600 7225 50  0000 C CNN
F 2 "" H 4600 7375 50  0000 C CNN
F 3 "" H 4600 7375 50  0000 C CNN
	1    4600 7375
	0    -1   1    0   
$EndComp
Wire Wire Line
	4550 7375 4600 7375
Text Notes 4750 3200 0    50   ~ 0
Hardware ID \nresistor
$Comp
L CONN_01X01 P115
U 1 1 5B56BD33
P 875 6925
F 0 "P115" H 875 6825 50  0000 C CNN
F 1 "I2C_SDA" H 1050 6925 40  0000 C CNN
F 2 "Custom:testpin_1X01" H 875 6925 50  0001 C CNN
F 3 "" H 875 6925 50  0000 C CNN
F 4 "DNP" H 875 6925 60  0001 C CNN "Placement"
	1    875  6925
	-1   0    0    1   
$EndComp
$Comp
L CONN_01X01 P116
U 1 1 5B56C511
P 875 7150
F 0 "P116" H 875 7050 50  0000 C CNN
F 1 "I2C_SCL" H 1050 7150 40  0000 C CNN
F 2 "Custom:testpin_1X01" H 875 7150 50  0001 C CNN
F 3 "" H 875 7150 50  0000 C CNN
F 4 "DNP" H 875 7150 60  0001 C CNN "Placement"
	1    875  7150
	-1   0    0    1   
$EndComp
Text Label 1200 7150 0    60   ~ 0
I2C_SDA
Text Label 1200 6925 0    60   ~ 0
i2C_SCL
Wire Wire Line
	1075 6925 1200 6925
Wire Wire Line
	1075 7150 1200 7150
$Comp
L CONN_01X01 P117
U 1 1 5B56CD9B
P 10625 3575
F 0 "P117" H 10625 3475 50  0000 C CNN
F 1 "RXD" H 10800 3575 40  0000 C CNN
F 2 "Custom:testpin_1X01" H 10625 3575 50  0001 C CNN
F 3 "" H 10625 3575 50  0000 C CNN
F 4 "DNP" H 10625 3575 60  0001 C CNN "Placement"
	1    10625 3575
	1    0    0    -1  
$EndComp
$Comp
L CONN_01X01 P118
U 1 1 5B56D800
P 10625 3825
F 0 "P118" H 10625 3725 50  0000 C CNN
F 1 "TXD" H 10800 3825 40  0000 C CNN
F 2 "Custom:testpin_1X01" H 10625 3825 50  0001 C CNN
F 3 "" H 10625 3825 50  0000 C CNN
F 4 "DNP" H 10625 3825 60  0001 C CNN "Placement"
	1    10625 3825
	1    0    0    -1  
$EndComp
Text Label 9900 3825 2    40   ~ 0
TRACKER_TXD
Text Label 9900 3575 2    40   ~ 0
TRACKER_RXD
Wire Wire Line
	10425 3825 9900 3825
Wire Wire Line
	10425 3575 9900 3575
$Comp
L CONN_01X01 P119
U 1 1 5B571248
P 4350 7125
F 0 "P119" H 4350 7025 50  0000 C CNN
F 1 "VBAT" V 4450 7125 40  0000 C CNN
F 2 "Custom:testpin_TH" H 4350 7125 50  0001 C CNN
F 3 "" H 4350 7125 50  0000 C CNN
F 4 "DNP" H 4350 7125 60  0001 C CNN "Placement"
	1    4350 7125
	-1   0    0    1   
$EndComp
$Comp
L +BATT #PWR047
U 1 1 5B571767
P 4625 7125
F 0 "#PWR047" H 4625 6975 50  0001 C CNN
F 1 "+BATT" H 4625 7265 50  0000 C CNN
F 2 "" H 4625 7125 50  0000 C CNN
F 3 "" H 4625 7125 50  0000 C CNN
	1    4625 7125
	0    1    1    0   
$EndComp
$Comp
L +1V8 #PWR048
U 1 1 5B572197
P 4675 6550
F 0 "#PWR048" H 4675 6400 50  0001 C CNN
F 1 "+1V8" V 4675 6775 50  0000 C CNN
F 2 "" H 4675 6550 50  0000 C CNN
F 3 "" H 4675 6550 50  0000 C CNN
	1    4675 6550
	0    1    1    0   
$EndComp
Wire Wire Line
	4550 7125 4625 7125
Wire Wire Line
	4675 6550 4575 6550
$EndSCHEMATC
