G04 #@! TF.FileFunction,Soldermask,Top*
%FSLAX46Y46*%
G04 Gerber Fmt 4.6, Leading zero omitted, Abs format (unit mm)*
G04 Created by KiCad (PCBNEW 4.0.4-snap1-stable) date Wed Jul 25 18:04:48 2018*
%MOMM*%
%LPD*%
G01*
G04 APERTURE LIST*
%ADD10C,0.100000*%
%ADD11C,1.600000*%
%ADD12R,0.700000X1.500000*%
%ADD13R,1.000000X1.200000*%
%ADD14R,1.200000X1.000000*%
%ADD15R,0.900000X0.900000*%
%ADD16C,1.900000*%
%ADD17R,3.900000X2.200000*%
%ADD18R,1.450000X2.600000*%
%ADD19R,1.900000X1.600000*%
%ADD20R,2.150000X2.150000*%
%ADD21C,2.150000*%
%ADD22R,0.600000X0.800000*%
%ADD23R,1.100000X0.650000*%
%ADD24R,1.040000X1.600000*%
%ADD25R,1.400000X1.400000*%
%ADD26O,1.500000X0.850000*%
%ADD27R,1.600000X1.425000*%
%ADD28R,2.630000X2.200000*%
%ADD29C,1.000000*%
%ADD30R,1.400760X0.999440*%
%ADD31R,0.999440X1.400760*%
%ADD32O,2.900000X1.100000*%
%ADD33O,1.100000X2.900000*%
%ADD34R,0.680000X1.250000*%
%ADD35R,1.250000X0.680000*%
%ADD36R,1.250000X1.250000*%
%ADD37R,0.680000X1.180000*%
%ADD38R,2.127200X2.432000*%
%ADD39O,2.127200X2.432000*%
%ADD40R,1.310000X1.620000*%
%ADD41R,1.620000X1.310000*%
G04 APERTURE END LIST*
D10*
D11*
X128800000Y-117950000D03*
X147225000Y-117950000D03*
X156425000Y-102025000D03*
X123350000Y-100000000D03*
X123350000Y-102000000D03*
X123350000Y-104000000D03*
D12*
X141500000Y-111825000D03*
X141500000Y-107925000D03*
X141000000Y-111825000D03*
X141000000Y-107925000D03*
X140500000Y-111825000D03*
X140500000Y-107925000D03*
X140000000Y-111825000D03*
X140000000Y-107925000D03*
X139500000Y-111825000D03*
X139500000Y-107925000D03*
X139000000Y-111825000D03*
X139000000Y-107925000D03*
X138500000Y-111825000D03*
X138500000Y-107925000D03*
X138000000Y-111825000D03*
X138000000Y-107925000D03*
X137500000Y-111825000D03*
X137500000Y-107925000D03*
X137000000Y-111825000D03*
X137000000Y-107925000D03*
X136500000Y-111825000D03*
X136500000Y-107925000D03*
X136000000Y-111825000D03*
X136000000Y-107925000D03*
X135500000Y-111825000D03*
X135500000Y-107925000D03*
X135000000Y-111825000D03*
X135000000Y-107925000D03*
X134500000Y-111825000D03*
X134500000Y-107925000D03*
D13*
X170000000Y-133000000D03*
X171400000Y-133000000D03*
X170000000Y-134200000D03*
X171400000Y-134200000D03*
D14*
X162300000Y-103250000D03*
X162300000Y-104650000D03*
X163300000Y-103250000D03*
X163300000Y-104650000D03*
X164300000Y-103250000D03*
X164300000Y-104650000D03*
X157400000Y-130700000D03*
X157400000Y-129300000D03*
X158600000Y-130700000D03*
X158600000Y-129300000D03*
X159800000Y-130700000D03*
X159800000Y-129300000D03*
X177400000Y-120100000D03*
X177400000Y-121500000D03*
D15*
X176700001Y-110500000D03*
X176700001Y-109400000D03*
X179100000Y-104100000D03*
X179100000Y-105200000D03*
D16*
X175650000Y-126100000D03*
D11*
X167350000Y-135100000D03*
D17*
X125500000Y-134900000D03*
X125500000Y-130900000D03*
D18*
X177150000Y-103850000D03*
X173600000Y-103850000D03*
D19*
X175400000Y-105350000D03*
D20*
X152100000Y-137900000D03*
D21*
X149600000Y-137900000D03*
X147100000Y-137900000D03*
D15*
X176700000Y-107150000D03*
X176700000Y-108250000D03*
X177800000Y-108250000D03*
X176700000Y-108250000D03*
D14*
X141000000Y-136400000D03*
X141000000Y-137800000D03*
D13*
X139900000Y-115100000D03*
X138500000Y-115100000D03*
D14*
X139700000Y-128400000D03*
X139700000Y-129800000D03*
X140900000Y-128400000D03*
X140900000Y-129800000D03*
D13*
X139600000Y-130900000D03*
X141000000Y-130900000D03*
D14*
X135575000Y-123150000D03*
X135575000Y-121750000D03*
D13*
X136100000Y-115100000D03*
X137500000Y-115100000D03*
D14*
X134375000Y-123950000D03*
X134375000Y-125350000D03*
X135575000Y-125350000D03*
X135575000Y-123950000D03*
D13*
X138300000Y-137700000D03*
X139700000Y-137700000D03*
D14*
X138500000Y-129800000D03*
X138500000Y-128400000D03*
D13*
X139700000Y-139100000D03*
X138300000Y-139100000D03*
X139700000Y-139100000D03*
X141100000Y-139100000D03*
X139700000Y-136500000D03*
X138300000Y-136500000D03*
D22*
X161300000Y-128425000D03*
X161300000Y-128975000D03*
X160950000Y-128425000D03*
X160950000Y-128975000D03*
X161650000Y-128425000D03*
X161650000Y-128975000D03*
D23*
X138425000Y-122650000D03*
X138425000Y-123150000D03*
X138425000Y-123650000D03*
X138425000Y-124150000D03*
X138425000Y-124650000D03*
X140275000Y-124650000D03*
X140275000Y-124150000D03*
X140275000Y-123650000D03*
X140275000Y-123150000D03*
X140275000Y-122650000D03*
D24*
X139350000Y-124250000D03*
X139350000Y-123050000D03*
D25*
X148050000Y-122100000D03*
X146750000Y-122100000D03*
D14*
X145000000Y-123049999D03*
X145000000Y-124449999D03*
D13*
X129600000Y-136700000D03*
X128200000Y-136700000D03*
X129600000Y-135700000D03*
X128200000Y-135700000D03*
X129600000Y-134700000D03*
X128200000Y-134700000D03*
D14*
X129700000Y-133600000D03*
X129700000Y-132200000D03*
X130699999Y-133600000D03*
X130699999Y-132200000D03*
X137000000Y-136400000D03*
X137000000Y-137800000D03*
X135800000Y-136400000D03*
X135800000Y-137800000D03*
D13*
X131000000Y-137900000D03*
X129600000Y-137900000D03*
X131000000Y-127900000D03*
X129600000Y-127900000D03*
D14*
X136100000Y-129400000D03*
X136100000Y-128000000D03*
X137300000Y-129400000D03*
X137300000Y-128000000D03*
D13*
X134700000Y-137400000D03*
X133300000Y-137400000D03*
X134700000Y-129600000D03*
X133300000Y-129600000D03*
X134700000Y-128400000D03*
X133300000Y-128400000D03*
D14*
X136775000Y-121750000D03*
X136775000Y-123150000D03*
X141875000Y-121750000D03*
X141875000Y-123150000D03*
X136775000Y-125350000D03*
X136775000Y-123950000D03*
D13*
X134700000Y-136200000D03*
X133300000Y-136200000D03*
X134700000Y-127200000D03*
X133300000Y-127200000D03*
D14*
X132000000Y-108100000D03*
X132000000Y-109500000D03*
X159800000Y-125900000D03*
X159800000Y-127300000D03*
X158600000Y-125900000D03*
X158600000Y-127300000D03*
X157400000Y-125900000D03*
X157400000Y-127300000D03*
X156200000Y-127300000D03*
X156200000Y-125900000D03*
D25*
X165550000Y-135800000D03*
X164250000Y-135800000D03*
D26*
X168000000Y-127390000D03*
X168000000Y-128660000D03*
X168000000Y-129930000D03*
X168000000Y-131200000D03*
X173600000Y-131200000D03*
X173600000Y-129930000D03*
X173600000Y-128660000D03*
X173600000Y-127390000D03*
D27*
X171400000Y-130832500D03*
X171400000Y-129807499D03*
X171400000Y-128782500D03*
X171400000Y-127757500D03*
X170200000Y-130832500D03*
X170200000Y-129807499D03*
X170200000Y-128782500D03*
X170200000Y-127757500D03*
D28*
X159900000Y-102840000D03*
X159900000Y-105760000D03*
D13*
X146700000Y-131200000D03*
X148100000Y-131200000D03*
D29*
X111362311Y-124199513D03*
D10*
G36*
X117699342Y-130104347D02*
X118277850Y-129414907D01*
X118967290Y-129993415D01*
X118388782Y-130682855D01*
X117699342Y-130104347D01*
X117699342Y-130104347D01*
G37*
D30*
X154250040Y-117450240D03*
X154250040Y-116149760D03*
X156149960Y-116800000D03*
D31*
X162700480Y-134100000D03*
X161400000Y-134100000D03*
X162050240Y-132200080D03*
D30*
X154250040Y-114050240D03*
X154250040Y-112749760D03*
X156149960Y-113400000D03*
D25*
X167200000Y-120500000D03*
X169000000Y-120500000D03*
X165400000Y-120500000D03*
X167200000Y-111500000D03*
X169000000Y-111500000D03*
X165400000Y-111500000D03*
X163600000Y-116900000D03*
X163600000Y-115100000D03*
X163600000Y-113300000D03*
X163600000Y-118700000D03*
X170800000Y-116900000D03*
X170800000Y-113300000D03*
X170800000Y-115100000D03*
X170800000Y-118700000D03*
D32*
X159550000Y-109400000D03*
X159550000Y-110500000D03*
X159550000Y-111600000D03*
X159550000Y-112700000D03*
X159550000Y-113800000D03*
X159550000Y-114900000D03*
X159550000Y-116000000D03*
X159550000Y-117100000D03*
X159550000Y-118200000D03*
X159550000Y-119300000D03*
X159550000Y-120400000D03*
X159550000Y-121500000D03*
X159550000Y-122600000D03*
D33*
X162800000Y-124600000D03*
X163900000Y-124600000D03*
X165000000Y-124600000D03*
X166100000Y-124600000D03*
X167200000Y-124600000D03*
X168300000Y-124600000D03*
X169400000Y-124600000D03*
X170500000Y-124600000D03*
D32*
X174850000Y-122600000D03*
D33*
X171600000Y-107400000D03*
D32*
X174850000Y-121500000D03*
X174850000Y-120400000D03*
X174850000Y-119300000D03*
X174850000Y-118200000D03*
X174850000Y-117100000D03*
X174850000Y-116000000D03*
X174850000Y-114900000D03*
X174850000Y-113800000D03*
X174850000Y-112700000D03*
X174850000Y-111600000D03*
X174850000Y-110500000D03*
D33*
X170500000Y-107400000D03*
X169400000Y-107400000D03*
X168300000Y-107400000D03*
X167200000Y-107400000D03*
X166100000Y-107400000D03*
X165000000Y-107400000D03*
X163900000Y-107400000D03*
X171600000Y-124600000D03*
D32*
X174850000Y-109400000D03*
D33*
X162800000Y-107400000D03*
D21*
X152300000Y-120700000D03*
D34*
X134200000Y-131174000D03*
X137700000Y-131174000D03*
X134700000Y-131174000D03*
X135200000Y-131174000D03*
X135700000Y-131174000D03*
X136200000Y-131174000D03*
X136700000Y-131174000D03*
X137200000Y-131174000D03*
X134200000Y-134624000D03*
X137700000Y-134624000D03*
X134700000Y-134624000D03*
X135200000Y-134624000D03*
X135700000Y-134624000D03*
X136200000Y-134624000D03*
X136700000Y-134624000D03*
X137200000Y-134624000D03*
D35*
X133728000Y-132150000D03*
X133728000Y-133650000D03*
X138175000Y-132150000D03*
X138175000Y-133648000D03*
D36*
X134900000Y-133460000D03*
X135950000Y-133460000D03*
X137000000Y-133460000D03*
X134900000Y-132340000D03*
X135950000Y-132340000D03*
X137000000Y-132340000D03*
D35*
X133728000Y-132650000D03*
X133728000Y-133150000D03*
X138175000Y-132650000D03*
X138175000Y-133150000D03*
D37*
X134200000Y-132900000D03*
X137700000Y-132900000D03*
D21*
X149600000Y-126600000D03*
D38*
X159500000Y-97900000D03*
D39*
X162040000Y-97900000D03*
X164580000Y-97900000D03*
X167120000Y-97900000D03*
X169660000Y-97900000D03*
X172200000Y-97900000D03*
D40*
X142735000Y-126700000D03*
X139465000Y-126700000D03*
X132235000Y-125100000D03*
X128965000Y-125100000D03*
D41*
X145000000Y-122114999D03*
X145000000Y-125384999D03*
M02*
