(module hexagon_shape (layer F.Cu) (tedit 5B116846)
  (descr "Imported from outline.svg")
  (tags svg2mod)
  (attr smd)
  (fp_text reference P103 (at 0 -20.32) (layer F.SilkS) hide
    (effects (font (thickness 0.3048)))
  )
  (fp_text value hexagon_shape (at 0 19.6) (layer F.SilkS) hide
    (effects (font (thickness 0.3048)))
  )
  (fp_line (start -20.071899 -0.267386) (end -20.072074 -0.232997) (layer F.SilkS) (width 0.1875))
  (fp_line (start -20.072074 -0.232997) (end -20.070946 -0.198693) (layer F.SilkS) (width 0.1875))
  (fp_line (start -20.070946 -0.198693) (end -20.068688 -0.164502) (layer F.SilkS) (width 0.1875))
  (fp_line (start -20.068688 -0.164502) (end -20.065358 -0.130457) (layer F.SilkS) (width 0.1875))
  (fp_line (start -20.065358 -0.130457) (end -20.06087 -0.096585) (layer F.SilkS) (width 0.1875))
  (fp_line (start -20.06087 -0.096585) (end -20.055226 -0.062916) (layer F.SilkS) (width 0.1875))
  (fp_line (start -20.055226 -0.062916) (end -20.048452 -0.029478) (layer F.SilkS) (width 0.1875))
  (fp_line (start -20.048452 -0.029478) (end -20.040522 0.003703) (layer F.SilkS) (width 0.1875))
  (fp_line (start -20.040522 0.003703) (end -20.031463 0.03659) (layer F.SilkS) (width 0.1875))
  (fp_line (start -20.031463 0.03659) (end -20.021303 0.069161) (layer F.SilkS) (width 0.1875))
  (fp_line (start -20.021303 0.069161) (end -20.010014 0.101386) (layer F.SilkS) (width 0.1875))
  (fp_line (start -20.010014 0.101386) (end -19.997624 0.133231) (layer F.SilkS) (width 0.1875))
  (fp_line (start -19.997624 0.133231) (end -19.984134 0.164671) (layer F.SilkS) (width 0.1875))
  (fp_line (start -19.984134 0.164671) (end -19.969571 0.195676) (layer F.SilkS) (width 0.1875))
  (fp_line (start -19.969571 0.195676) (end -19.953908 0.226218) (layer F.SilkS) (width 0.1875))
  (fp_line (start -19.953908 0.226218) (end -19.937172 0.256266) (layer F.SilkS) (width 0.1875))
  (fp_line (start -19.937172 0.256266) (end -10.397841 16.733196) (layer F.SilkS) (width 0.1875))
  (fp_line (start -10.397841 16.733196) (end -10.362532 16.789739) (layer F.SilkS) (width 0.1875))
  (fp_line (start -10.362532 16.789739) (end -10.323859 16.843389) (layer F.SilkS) (width 0.1875))
  (fp_line (start -10.323859 16.843389) (end -10.282005 16.894042) (layer F.SilkS) (width 0.1875))
  (fp_line (start -10.282005 16.894042) (end -10.237152 16.941594) (layer F.SilkS) (width 0.1875))
  (fp_line (start -10.237152 16.941594) (end -10.189485 16.985937) (layer F.SilkS) (width 0.1875))
  (fp_line (start -10.189485 16.985937) (end -10.139181 17.026969) (layer F.SilkS) (width 0.1875))
  (fp_line (start -10.139181 17.026969) (end -10.086425 17.064584) (layer F.SilkS) (width 0.1875))
  (fp_line (start -10.086425 17.064584) (end -10.031401 17.098676) (layer F.SilkS) (width 0.1875))
  (fp_line (start -10.031401 17.098676) (end -9.974287 17.129142) (layer F.SilkS) (width 0.1875))
  (fp_line (start -9.974287 17.129142) (end -9.915266 17.155868) (layer F.SilkS) (width 0.1875))
  (fp_line (start -9.915266 17.155868) (end -9.854523 17.178757) (layer F.SilkS) (width 0.1875))
  (fp_line (start -9.854523 17.178757) (end -9.79224 17.197722) (layer F.SilkS) (width 0.1875))
  (fp_line (start -9.79224 17.197722) (end -9.728596 17.212623) (layer F.SilkS) (width 0.1875))
  (fp_line (start -9.728596 17.212623) (end -9.663775 17.223376) (layer F.SilkS) (width 0.1875))
  (fp_line (start -9.663775 17.223376) (end -9.597961 17.229867) (layer F.SilkS) (width 0.1875))
  (fp_line (start -9.597961 17.229867) (end -9.531331 17.232125) (layer F.SilkS) (width 0.1875))
  (fp_line (start -9.531331 17.232125) (end 9.508196 17.209519) (layer F.SilkS) (width 0.1875))
  (fp_line (start 9.508196 17.209519) (end 9.574831 17.207261) (layer F.SilkS) (width 0.1875))
  (fp_line (start 9.574831 17.207261) (end 9.640643 17.200601) (layer F.SilkS) (width 0.1875))
  (fp_line (start 9.640643 17.200601) (end 9.705447 17.189679) (layer F.SilkS) (width 0.1875))
  (fp_line (start 9.705447 17.189679) (end 9.769065 17.174608) (layer F.SilkS) (width 0.1875))
  (fp_line (start 9.769065 17.174608) (end 9.831312 17.155502) (layer F.SilkS) (width 0.1875))
  (fp_line (start 9.831312 17.155502) (end 9.89201 17.132444) (layer F.SilkS) (width 0.1875))
  (fp_line (start 9.89201 17.132444) (end 9.950974 17.105576) (layer F.SilkS) (width 0.1875))
  (fp_line (start 9.950974 17.105576) (end 10.00802 17.074969) (layer F.SilkS) (width 0.1875))
  (fp_line (start 10.00802 17.074969) (end 10.062972 17.040742) (layer F.SilkS) (width 0.1875))
  (fp_line (start 10.062972 17.040742) (end 10.115643 17.002997) (layer F.SilkS) (width 0.1875))
  (fp_line (start 10.115643 17.002997) (end 10.16585 16.961841) (layer F.SilkS) (width 0.1875))
  (fp_line (start 10.16585 16.961841) (end 10.213416 16.917377) (layer F.SilkS) (width 0.1875))
  (fp_line (start 10.213416 16.917377) (end 10.258156 16.869712) (layer F.SilkS) (width 0.1875))
  (fp_line (start 10.258156 16.869712) (end 10.299891 16.818952) (layer F.SilkS) (width 0.1875))
  (fp_line (start 10.299891 16.818952) (end 10.338435 16.765197) (layer F.SilkS) (width 0.1875))
  (fp_line (start 10.338435 16.765197) (end 10.373605 16.708555) (layer F.SilkS) (width 0.1875))
  (fp_line (start 10.373605 16.708555) (end 19.873801 0.208475) (layer F.SilkS) (width 0.1875))
  (fp_line (start 19.873801 0.208475) (end 19.905125 0.149623) (layer F.SilkS) (width 0.1875))
  (fp_line (start 19.905125 0.149623) (end 19.932274 0.089306) (layer F.SilkS) (width 0.1875))
  (fp_line (start 19.932274 0.089306) (end 19.955219 0.027734) (layer F.SilkS) (width 0.1875))
  (fp_line (start 19.955219 0.027734) (end 19.973987 -0.034888) (layer F.SilkS) (width 0.1875))
  (fp_line (start 19.973987 -0.034888) (end 19.988549 -0.098343) (layer F.SilkS) (width 0.1875))
  (fp_line (start 19.988549 -0.098343) (end 19.998935 -0.162427) (layer F.SilkS) (width 0.1875))
  (fp_line (start 19.998935 -0.162427) (end 20.005144 -0.226926) (layer F.SilkS) (width 0.1875))
  (fp_line (start 20.005144 -0.226926) (end 20.00712 -0.291629) (layer F.SilkS) (width 0.1875))
  (fp_line (start 20.00712 -0.291629) (end 20.004862 -0.356328) (layer F.SilkS) (width 0.1875))
  (fp_line (start 20.004862 -0.356328) (end 19.998512 -0.420813) (layer F.SilkS) (width 0.1875))
  (fp_line (start 19.998512 -0.420813) (end 19.987985 -0.484872) (layer F.SilkS) (width 0.1875))
  (fp_line (start 19.987985 -0.484872) (end 19.973281 -0.548296) (layer F.SilkS) (width 0.1875))
  (fp_line (start 19.973281 -0.548296) (end 19.954372 -0.610873) (layer F.SilkS) (width 0.1875))
  (fp_line (start 19.954372 -0.610873) (end 19.931287 -0.672394) (layer F.SilkS) (width 0.1875))
  (fp_line (start 19.931287 -0.672394) (end 19.904024 -0.732652) (layer F.SilkS) (width 0.1875))
  (fp_line (start 19.904024 -0.732652) (end 19.872567 -0.79143) (layer F.SilkS) (width 0.1875))
  (fp_line (start 19.872567 -0.79143) (end 10.332683 -17.268357) (layer F.SilkS) (width 0.1875))
  (fp_line (start 10.332683 -17.268357) (end 10.297397 -17.324939) (layer F.SilkS) (width 0.1875))
  (fp_line (start 10.297397 -17.324939) (end 10.258746 -17.378632) (layer F.SilkS) (width 0.1875))
  (fp_line (start 10.258746 -17.378632) (end 10.21691 -17.429325) (layer F.SilkS) (width 0.1875))
  (fp_line (start 10.21691 -17.429325) (end 10.17207 -17.476916) (layer F.SilkS) (width 0.1875))
  (fp_line (start 10.17207 -17.476916) (end 10.124411 -17.521298) (layer F.SilkS) (width 0.1875))
  (fp_line (start 10.124411 -17.521298) (end 10.074114 -17.562367) (layer F.SilkS) (width 0.1875))
  (fp_line (start 10.074114 -17.562367) (end 10.021363 -17.600021) (layer F.SilkS) (width 0.1875))
  (fp_line (start 10.021363 -17.600021) (end 9.966336 -17.634151) (layer F.SilkS) (width 0.1875))
  (fp_line (start 9.966336 -17.634151) (end 9.90922 -17.66465) (layer F.SilkS) (width 0.1875))
  (fp_line (start 9.90922 -17.66465) (end 9.850196 -17.691433) (layer F.SilkS) (width 0.1875))
  (fp_line (start 9.850196 -17.691433) (end 9.789445 -17.714378) (layer F.SilkS) (width 0.1875))
  (fp_line (start 9.789445 -17.714378) (end 9.72715 -17.733371) (layer F.SilkS) (width 0.1875))
  (fp_line (start 9.72715 -17.733371) (end 9.663492 -17.748301) (layer F.SilkS) (width 0.1875))
  (fp_line (start 9.663492 -17.748301) (end 9.598657 -17.759082) (layer F.SilkS) (width 0.1875))
  (fp_line (start 9.598657 -17.759082) (end 9.532823 -17.765601) (layer F.SilkS) (width 0.1875))
  (fp_line (start 9.532823 -17.765601) (end 9.466173 -17.767859) (layer F.SilkS) (width 0.1875))
  (fp_line (start 9.466173 -17.767859) (end -9.573354 -17.744717) (layer F.SilkS) (width 0.1875))
  (fp_line (start -9.573354 -17.744717) (end -9.639989 -17.742459) (layer F.SilkS) (width 0.1875))
  (fp_line (start -9.639989 -17.742459) (end -9.705801 -17.73577) (layer F.SilkS) (width 0.1875))
  (fp_line (start -9.705801 -17.73577) (end -9.770605 -17.724848) (layer F.SilkS) (width 0.1875))
  (fp_line (start -9.770605 -17.724848) (end -9.834223 -17.709778) (layer F.SilkS) (width 0.1875))
  (fp_line (start -9.834223 -17.709778) (end -9.89647 -17.690671) (layer F.SilkS) (width 0.1875))
  (fp_line (start -9.89647 -17.690671) (end -9.957168 -17.667614) (layer F.SilkS) (width 0.1875))
  (fp_line (start -9.957168 -17.667614) (end -10.016132 -17.640718) (layer F.SilkS) (width 0.1875))
  (fp_line (start -10.016132 -17.640718) (end -10.073178 -17.610111) (layer F.SilkS) (width 0.1875))
  (fp_line (start -10.073178 -17.610111) (end -10.128129 -17.575883) (layer F.SilkS) (width 0.1875))
  (fp_line (start -10.128129 -17.575883) (end -10.180801 -17.538139) (layer F.SilkS) (width 0.1875))
  (fp_line (start -10.180801 -17.538139) (end -10.231008 -17.496982) (layer F.SilkS) (width 0.1875))
  (fp_line (start -10.231008 -17.496982) (end -10.278574 -17.452518) (layer F.SilkS) (width 0.1875))
  (fp_line (start -10.278574 -17.452518) (end -10.323314 -17.404853) (layer F.SilkS) (width 0.1875))
  (fp_line (start -10.323314 -17.404853) (end -10.365049 -17.354093) (layer F.SilkS) (width 0.1875))
  (fp_line (start -10.365049 -17.354093) (end -10.403592 -17.300338) (layer F.SilkS) (width 0.1875))
  (fp_line (start -10.403592 -17.300338) (end -10.438763 -17.243696) (layer F.SilkS) (width 0.1875))
  (fp_line (start -10.438763 -17.243696) (end -19.938406 -0.744169) (layer F.SilkS) (width 0.1875))
  (fp_line (start -19.938406 -0.744169) (end -19.953674 -0.716709) (layer F.SilkS) (width 0.1875))
  (fp_line (start -19.953674 -0.716709) (end -19.968039 -0.688854) (layer F.SilkS) (width 0.1875))
  (fp_line (start -19.968039 -0.688854) (end -19.981501 -0.660592) (layer F.SilkS) (width 0.1875))
  (fp_line (start -19.981501 -0.660592) (end -19.99406 -0.63196) (layer F.SilkS) (width 0.1875))
  (fp_line (start -19.99406 -0.63196) (end -20.005716 -0.602979) (layer F.SilkS) (width 0.1875))
  (fp_line (start -20.005716 -0.602979) (end -20.01644 -0.573667) (layer F.SilkS) (width 0.1875))
  (fp_line (start -20.01644 -0.573667) (end -20.026233 -0.544051) (layer F.SilkS) (width 0.1875))
  (fp_line (start -20.026233 -0.544051) (end -20.035095 -0.51415) (layer F.SilkS) (width 0.1875))
  (fp_line (start -20.035095 -0.51415) (end -20.043025 -0.483986) (layer F.SilkS) (width 0.1875))
  (fp_line (start -20.043025 -0.483986) (end -20.050024 -0.453585) (layer F.SilkS) (width 0.1875))
  (fp_line (start -20.050024 -0.453585) (end -20.056064 -0.422964) (layer F.SilkS) (width 0.1875))
  (fp_line (start -20.056064 -0.422964) (end -20.061144 -0.392148) (layer F.SilkS) (width 0.1875))
  (fp_line (start -20.061144 -0.392148) (end -20.065264 -0.361157) (layer F.SilkS) (width 0.1875))
  (fp_line (start -20.065264 -0.361157) (end -20.068425 -0.330014) (layer F.SilkS) (width 0.1875))
  (fp_line (start -20.068425 -0.330014) (end -20.070683 -0.298744) (layer F.SilkS) (width 0.1875))
  (fp_line (start -20.070683 -0.298744) (end -20.071812 -0.267363) (layer F.SilkS) (width 0.1875))
  (fp_line (start -20.071812 -0.267363) (end -20.071809 -0.267363) (layer F.SilkS) (width 0.1875))
  (fp_line (start -20.071809 -0.267363) (end -20.071809 -0.26736) (layer F.SilkS) (width 0.1875))
  (fp_line (start -20.071809 -0.26736) (end -20.071806 -0.26736) (layer F.SilkS) (width 0.1875))
  (fp_line (start -20.071806 -0.26736) (end -20.071803 -0.267358) (layer F.SilkS) (width 0.1875))
  (fp_line (start -20.071803 -0.267358) (end -20.071801 -0.267358) (layer F.SilkS) (width 0.1875))
  (fp_line (start -20.071801 -0.267358) (end -20.071798 -0.267355) (layer F.SilkS) (width 0.1875))
  (fp_line (start -20.071798 -0.267355) (end -20.071795 -0.267355) (layer F.SilkS) (width 0.1875))
  (fp_line (start -20.071795 -0.267355) (end -20.071792 -0.267352) (layer F.SilkS) (width 0.1875))
  (fp_line (start -20.071792 -0.267352) (end -20.071789 -0.267352) (layer F.SilkS) (width 0.1875))
  (fp_line (start -20.071789 -0.267352) (end -20.071789 -0.267349) (layer F.SilkS) (width 0.1875))
  (fp_line (start -20.071789 -0.267349) (end -20.071899 -0.267386) (layer F.SilkS) (width 0.1875))
)
