(module SOD-123_custom (layer F.Cu) (tedit 5B519D6B)
  (descr SOD-123)
  (tags SOD-123)
  (attr smd)
  (fp_text reference D203 (at 2.250001 -2.5 90) (layer F.SilkS)
    (effects (font (size 0.8 0.8) (thickness 0.1)))
  )
  (fp_text value D (at 0 2.1) (layer F.Fab) hide
    (effects (font (size 1 1) (thickness 0.15)))
  )
  (fp_line (start -2 1.15) (end -2 0.9) (layer F.SilkS) (width 0.15))
  (fp_line (start 0.3175 0) (end 0.6985 0) (layer F.SilkS) (width 0.15))
  (fp_line (start -0.6985 0) (end -0.3175 0) (layer F.SilkS) (width 0.15))
  (fp_line (start -0.3175 0) (end 0.3175 -0.381) (layer F.SilkS) (width 0.15))
  (fp_line (start 0.3175 -0.381) (end 0.3175 0.381) (layer F.SilkS) (width 0.15))
  (fp_line (start 0.3175 0.381) (end -0.3175 0) (layer F.SilkS) (width 0.15))
  (fp_line (start -0.3175 -0.508) (end -0.3175 0.508) (layer F.SilkS) (width 0.15))
  (fp_line (start -2.25 -1.05) (end 2.25 -1.05) (layer F.CrtYd) (width 0.05))
  (fp_line (start 2.25 -1.05) (end 2.25 1.05) (layer F.CrtYd) (width 0.05))
  (fp_line (start 2.25 1.05) (end -2.25 1.05) (layer F.CrtYd) (width 0.05))
  (fp_line (start -2.25 -1.05) (end -2.25 1.05) (layer F.CrtYd) (width 0.05))
  (fp_line (start -2 1.15) (end 1.54 1.15) (layer F.SilkS) (width 0.15))
  (fp_line (start -2 -1.15) (end 1.54 -1.15) (layer F.SilkS) (width 0.15))
  (fp_line (start -0.85 1.15) (end -0.85 0.8) (layer F.SilkS) (width 0.15))
  (fp_line (start -0.85 -0.8) (end -0.85 -1.15) (layer F.SilkS) (width 0.15))
  (fp_line (start -2 -0.9) (end -2 -1.15) (layer F.SilkS) (width 0.15))
  (pad 1 smd rect (at -1.635 0) (size 0.91 1.22) (layers F.Cu F.Paste F.Mask))
  (pad 2 smd rect (at 1.635 0) (size 0.91 1.22) (layers F.Cu F.Paste F.Mask))
)
